/* customTempTable.i */
define temp-table custom no-undo
  field data01 as char format "x(60)"
  field data02 as char format "x(60)"
  field data03 as char format "x(60)"
  field data04 as char format "x(60)"
  field data05 as char format "x(60)"
  field data06 as char format "x(60)"
  field data07 as char format "x(60)"
  field data08 as char format "x(60)"
  field data09 as char format "x(60)"
  field data10 as char format "x(60)"
  field data11 as char format "x(60)"
  field data12 as char format "x(60)".


