assign s-whse      = CAPS(LEAD.whse)
       s-arp       = CAPS(LEAD.arp)
       s-status    = CAPS(LEAD.statustp)
       s-LT1       = LEAD.leadtm[1]
       s-LT2       = LEAD.leadtm[2]
       s-LT3       = LEAD.leadtm[3]
       s-LT4       = LEAD.leadtm[4]
       s-LT5       = LEAD.leadtm[5]
       s-frozeLT   = LEAD.frozeLT  
       s-LTdt1     = LEAD.postdt[1]
       s-LTdt2     = LEAD.postdt[2]
       s-LTdt3     = LEAD.postdt[3]
       s-LTdt4     = LEAD.postdt[4]
       s-LTdt5     = LEAD.postdt[5].
         
display s-whse           
        s-arp             
        s-status       
        s-LT1       
        s-LT2       
        s-LT3       
        s-LT4       
        s-LT5       
        s-frozeLT    
        s-LTdt1     
        s-LTdt2     
        s-LTdt3     
        s-LTdt4     
        s-LTdt5         
        s-space
        with frame f-icizldtl.