 s-whse = icsd.whse.
 s-totaliss = s-rissues + s-dissues + s-nissues.
 display s-whse
         s-onhand
         s-avail
         s-rissues
         s-dissues
         s-nissues
         s-lastdt
         s-cost
         s-lead
         s-onord
 with frame f-icizhd.
 