
/* assign x-front =  string(kpz.seqno) + " " + kpz.compprod.  */

    
    display
/*  x-front  */
    kpz.seqno
    kpz.compprod  
    kpz.qtyneeded 
/*  kpz.datccost  */
    var-qtyavail
    kpz.stndcost  
/*  kpz.wstndcost this  */
    var-extcost
/*  kpz.wdatccost */ 
    with frame f-kpizbd.  


 put screen row 20 col 2 "                                                   ". 
   put screen row 20 col 52 "    Total: " + string(v-total,">>>,>>>,>>9.999").
  /*  display v-total with frame f-total.     */

    
    put screen row 21 col 3 color messages
   " F6-ICSW F7-Comp POIZS   F8-Kit POIZS   F9-Prod Avail  F10-Comp Cost Dt".
 
