
  assign x-front = string(oeelk.seqno,">>9") + " " +
                   oeelk.shipprod.

         display
         x-front    
         /*
         oeelk.shipprod
         */
         oeelk.qtyship
         oeelk.qtyord
         icsw.avgcost
         vp-CountryOfOrigin
         vp-CustomsExpireDt 
         vp-MaintDt         
         icsp.descrip[1]
         var-netamt
         vp-CanadianTariffNbr
         vp-USATariffNbr     
         vp-ScheduleBInfo  
         vp-ScheduleBMaintDt
         with frame f-schedulebc.


