{w-icsp.i kpsk.comprod no-lock}
{w-icsw.i kpsk.comprod g-whse no-lock} 

if not avail icsp then
  next.


if num-entries(icsp.user3,"~011") ge 1 then
 c-tarnbr = entry(1,icsp.user3,"~011").
else 
 c-tarnbr = "".
if num-entries(icsp.user3,"~011") ge 2 then
 u-tarnbr = entry(2,icsp.user3,"~011").
else 
 u-tarnbr = "".

if num-entries(icsp.user3,"~011") ge 3 then
 v-countrycd = entry(3,icsp.user3,"~011").
else 
 v-countrycd = "".

if num-entries(icsp.user3,"~011") ge 4 then
 v-lastupdt = date(entry(4,icsp.user3,"~011")).
else 
 v-lastupdt = ?.

if num-entries(icsp.user3,"~011") ge 5 then
 v-expdt = date(entry(5,icsp.user3,"~011")).
else 
 v-expdt = ?.

if avail icsw then do:
  assign v-netamt =  kpsk.qtyneeded  * icsw.avgcost.
  assign s-netcost = string(v-netamt,"zzzzzz9.99999")
         s-avgcost = string(icsw.avgcost,"zzzzzz9.99999").
end.
else do:
  assign s-netcost = "    No ICSW  "
         s-avgcost = "    N/A".

end.

  assign x-front = string(kpsk.seqno,">>9") + " " +
                   kpsk.comprod.


display  x-front
         /*
         kpsk.seqno     
         kpsk.comprod  
         */
         kpsk.qtyneeded 
         s-avgcost   
         v-countrycd      
         v-expdt        
         v-lastupdt
         icsp.descrip[1]
         s-netcost
         u-tarnbr
         c-tarnbr
         vp-ScheduleBInfo     
         vp-ScheduleBMaintDt   
with frame f-schedulebk.


             
