if avail icsp then do:
  if avail icsw then do:
/* message "icsp/icsw" icsp.cono icsp.prod icsw.prod. pause.  */

  assign x-front = string(oeel.lineno,">>9") + " " +
                   oeel.shipprod.

         display
         x-front    
         /*
         oeel.shipprod
         */
         oeel.qtyship
         oeel.qtyord
         var-avgcost    /* icsw.avgcost */
         vp-CountryOfOrigin
         vp-CustomsExpireDt 
         vp-MaintDt         
         var-descrip   /* icsp.descrip[1] */
         var-netamt
         vp-CanadianTariffNbr
         vp-USATariffNbr     
         vp-ScheduleBInfo  
         vp-ScheduleBMaintDt
         with frame f-scheduleb.


    put screen row 18 col 2 color message 
"                     F6 - Components                                         ".
    put screen row 19 col 2 /* color message  */
"                                                                             ".
    put screen row 20 col 2 /* color message  */
"                                                                             ".
    put screen row 21 col 2 /* color message  */
"                                                                             ".
end.
end.
else 
if oeel.specnstype = "n" /* and oeel.kitfl */ then do:

    assign x-front = string(oeel.lineno,">>9") + " " +
                   oeel.shipprod.


              display
         x-front    
         oeel.qtyship
         oeel.qtyord
         var-avgcost /* icsw.avgcost  */
         vp-CountryOfOrigin
         vp-CustomsExpireDt 
         vp-MaintDt         
         var-descrip   /* icsp.descrip[1]  */
         var-netamt
         vp-CanadianTariffNbr
         vp-USATariffNbr     
         vp-ScheduleBInfo  
         vp-ScheduleBMaintDt  
         with frame f-scheduleb.


 
 
 
         
    put screen row 18 col 2 color message 
"                     F6 - Components                                         ".
    put screen row 19 col 2 /* color message  */
"                                                                             ".
    put screen row 20 col 2 /* color message  */
"                                                                             ".
    put screen row 21 col 2 /* color message  */
"                                                                             ".
         
end.

