/* f-arszf.i */
g-custno              colon 20 label "Cust No"
  {f-help.i}
space (5)
arsc.name               
g-shipto              colon 20 label "Ship-to"
  {f-help.i}
xint1     colon 20 label "UPS %"
xint2     colon 20 label "LTL %"
with frame f-arszf side-labels row 1 width 80 overlay
