/* f-sastx.i */

s-codevala4               colon 33 label "Product Price Type"
{f-help.i}
sasta.descrip             at 30


skip (5)
sasta.user4        format "x(30)" 
                                 colon 33 label "Additional Description"

with frame f-sastx side-labels row 1 width 80 overlay