/* f-smazf.i /*

s-type             format "xx"   colon 13 label "Quota type"
s-key              format "x(30) colon 13 label "Selection Key"
s-year             format "9999" colon 13 label "Year"
zsmsq.quotaamt[1]  format ">>>,>>>,>>9.99"
                                 colon 13 label "Sales Quota Per 1"
zsmsq.quotaGP[1]   format ">>>,>>>,>>9.99"
                                 colon 67 label "G.P.  Quota Per 1"
zsmsq.quotaamt[2]  format ">>>,>>>,>>9.99"
                                 colon 13 label "Sales Quota Per 2"
zsmsq.quotaGP[2]   format ">>>,>>>,>>9.99"
                                 colon 67 label "G.P.  Quota Per 2"
zsmsq.quotaamt[3]  format ">>>,>>>,>>9.99"
                                 colon 13 label "Sales Quota Per 3"
zsmsq.quotaGP[3]   format ">>>,>>>,>>9.99"
                                 colon 67 label "G.P.  Quota Per 3"
zsmsq.quotaamt[4]  format ">>>,>>>,>>9.99"
                                 colon 13 label "Sales Quota Per 4"
zsmsq.quotaGP[4]   format ">>>,>>>,>>9.99"
                                 colon 67 label "G.P.  Quota Per 4"
zsmsq.quotaamt[5]  format ">>>,>>>,>>9.99"
                                 colon 13 label "Sales Quota Per 5"
zsmsq.quotaGP[5]   format ">>>,>>>,>>9.99"
                                 colon 67 label "G.P.  Quota Per 5"
zsmsq.quotaamt[6]  format ">>>,>>>,>>9.99"
                                 colon 13 label "Sales Quota Per 6"
zsmsq.quotaGP[6]   format ">>>,>>>,>>9.99"
                                 colon 67 label "G.P.  Quota Per 6"
zsmsq.quotaamt[7]  format ">>>,>>>,>>9.99"
                                 colon 13 label "Sales Quota Per 7"
zsmsq.quotaGP[7]   format ">>>,>>>,>>9.99"
                                 colon 67 label "G.P.  Quota Per 7"
zsmsq.quotaamt[8]  format ">>>,>>>,>>9.99"
                                 colon 13 label "Sales Quota Per 8"
zsmsq.quotaGP[8]   format ">>>,>>>,>>9.99"
                                 colon 67 label "G.P.  Quota Per 8"
zsmsq.quotaamt[9]  format ">>>,>>>,>>9.99"
                                 colon 13 label "Sales Quota Per 9"
zsmsq.quotaGP[9]   format ">>>,>>>,>>9.99"
                                 colon 67 label "G.P.  Quota Per 9"
zsmsq.quotaamt[10]  format ">>>,>>>,>>9.99"
                                 colon 13 label "Sales Quota Per 10"
zsmsq.quotaGP[10]   format ">>>,>>>,>>9.99"
                                 colon 67 label "G.P.  Quota Per 10"
zsmsq.quotaamt[11]  format ">>>,>>>,>>9.99"
                                 colon 13 label "Sales Quota Per 11"
zsmsq.quotaGP[11]   format ">>>,>>>,>>9.99"
                                 colon 67 label "G.P.  Quota Per 11"
zsmsq.quotaamt[12]  format ">>>,>>>,>>9.99"
                                 colon 13 label "Sales Quota Per 12"
zsmsq.quotaGP[12]   format ">>>,>>>,>>9.99"
                                 colon 67 label "G.P.  Quota Per 12"

with frame f-zsmsq side-labels row 1 width 80 overlay