

/*  g-kpstg2.i    */
def var v-stage2 as c extent 11 initial
["Whe","Stg","Asy","Tst","Pnt","Prg","Qhd","Psh","Bag","  ","  "] no-undo.

def var v-stage3 as c extent 11 initial
["Warehouse","Parts Staged","Assembly","Test","Paint",
 "Programming","Quality Hold","Part Shortage",
 "Plug/Bag","Built","Cancelled"] no-undo.

 
 
