
 if {k-func7.i} then do:
   message "function 7". pause.
 end.
  
  
  /*
  
  do while true with frame f-icinlz on endkey undo main, leave main:
     if {k-jump.i} or {k-endkey.i} then 
        leave main.
     view frame f-icinlz.
     display v-msg with frame f-icinhz.
     color display input v-msg with frame f-icinhz.
     put screen row 21 col 3 color message 
  "F6-Order Detail      F7-Active Only                                       ". 
     if b-icenh.activefl = yes then do:
     repeat:                 
       {x-xxex.i &find    = "icinlz.lns"
                 &frame   = "f-icinlz"
                 &file    = "icenl"
                 &field   = "s-orderl"
                 &display = "icinlz.ldi"
                 &inqfl   = "/*"}.      
     end. /* end repeat */             
    end. /* if b-icenh.activefl */    
     leave main.                 
  end. /* end do */                    
       
          put screen row 21 col 3 color message 
  "F6-Order Detail     F7-Active Only                                        ".
  
*/
