/*       n-oeizsl.i             find next/prev for oeizs, lookup name      */
find {1} oeelb  where
 oeelb.cono      = g-cono and
 oeelb.batchnm   = string(v-batchnm,">>>>>>>9") and
 /*oeelb.lineno   >= s-lineno and*/
 oeelb.seqno     = 2 no-lock no-error.
