find {1} oeelb where
         oeelb.cono     = g-cono and
         oeelb.batchnm  = string(g-orderno,">>>>>>>9") and
         oeelb.seqno    = 1 and
         oeelb.lineno   >= s-lineno
         no-lock no-error.
