confirm = true.

find {1} poelo  use-index k-poelo
              where poelo.cono = g-cono and
                    poelo.ordertype = "o" and
                    poelo.pono = g-pono and
                    poelo.posuf = g-posuf and
                    poelo.lineno ge v-polineno no-lock no-error.


if not avail poelo then
  confirm = false.