/*       n-zsdiobl.i             find next/prev for zsdiobl, lookup name      */
find {1} oeelb  where
 oeelb.cono      = g-cono and
 oeelb.batchnm   = string(v-batchnm,">>>>>>>9") and
 oeelb.seqno     = 1 no-lock no-error.
