confirm = true.

find {1} wtelo  use-index k-wtelo
              where wtelo.cono = g-cono and
                    wtelo.ordertype = "o" and
                    wtelo.wtno = g-wtno and
                    wtelo.wtsuf = g-wtsuf and
                    wtelo.lineno ge v-wtlineno no-lock no-error.


if not avail wtelo then
  confirm = false.