  assign
    arsc.addonno[1]     =      0
    arsc.addonno[2]     =      0
    arsc.addonno[3]     =      0
    arsc.addonno[4]     =      0
    arsc.addonnum[1]    =      0
    arsc.addonnum[2]    =      0
    arsc.addonnum[3]    =      0
    arsc.addonnum[4]    =      0
    arsc.addonnum[5]    =      0
    arsc.addonnum[6]    =      0
    arsc.addonnum[7]    =      0
    arsc.addonnum[8]    =      0
    arsc.addr[1]        =      1234 test
    arsc.addr[2]        =
    arsc.addr3          =
    arsc.apmgr          =
    arsc.apphoneno      =
    arsc.ardatccost     =      0
    arsc.ardatcty       =      p
    arsc.AuthGrpList    =      ?
    arsc.avgpaydays     =      0
    arsc.bankacct       =
    arsc.bankmgr        =
    arsc.banknm         =
    arsc.bankno         =      50
    arsc.bankphoneno    =
    arsc.bofl           =      yes
    arsc.cashrecfl      =      no
    arsc.cashreqfl      =      no
    arsc.ccexp          =
    arsc.ccno           =
    arsc.city           =      CLINTON TOWNSHIP
    arsc.citycd         =
    arsc.class          =      0
    arsc.codbal         =      0
    arsc.comment        =
    arsc.cono           =      1
    arsc.consolformat   =
    arsc.consolinterval =
    arsc.consolinvty    =
    arsc.consolterms    =
    arsc.costytd        =      0
    arsc.countrycd      =
    arsc.countycd       =
    arsc.creditmgr      =
    arsc.credlim        =      3000
    arsc.crestdt        =      11/11/14
    arsc.crref[1]       =
    arsc.crref[2]       =
    arsc.crsname        =
    arsc.currencyty     =
    arsc.custcodbal     =      0
    arsc.custfutinvbal  =      0
    arsc.custmisccrbal  =      0
    arsc.custno         =      1230005945
    arsc.custno2        =      0
    arsc.custordbal     =      0
    arsc.custperiodbal[1] =    0
    arsc.custperiodbal[2] =    0
    arsc.custperiodbal[3] =    0
    arsc.custperiodbal[4] =    0
    arsc.custperiodbal[5] =    0
    arsc.custpo         =  
    arsc.custprodfl     =      no
    arsc.custservchgbal =      0
    arsc.custtype       =
    arsc.custuncashbal  =      0
    arsc.cyclecd        =
    arsc.dealer         =
    arsc.disccd         =      1
    arsc.discytd        =      0
    arsc.divno          =      30
    arsc.downpayamt     =      0
    arsc.dunningfl      =      no
    arsc.dunsno         =
    arsc.eacktype       =
    arsc.easngrp        =
    arsc.easnto         =
    arsc.ecommwhse      =
    arsc.edi840fl       =      no
    arsc.ediackver      =
    arsc.edicatprodfl   =      no
    arsc.edichgcd       =
    arsc.edictrlno      =      0
    arsc.edienvtag[1]   =
    arsc.edienvtag[2]   =
    arsc.ediinvver      =
    arsc.edijitfl       =      no
    arsc.edinetwork     =
    arsc.edinsprodfl    =      no
    arsc.ediordcd       =
    arsc.edipartaddr    =
    arsc.edipartner     =
    arsc.ediprcfl       =     no
    arsc.ediprintnotesfl =     no
    arsc.editermsfl     =      no
    arsc.ediyouraddr    =
    arsc.einvtype       =
    arsc.email          =
    arsc.enterdt        =      11/11/14
    arsc.eproptype      =
    arsc.estmttype      =
    arsc.faxphoneno     =
    arsc.fpcustfl       =      no
    arsc.fpcustno       =      0
    arsc.futbal         =      0
    arsc.futinvbal      =      0
    arsc.geocd          =      6
    arsc.glacctno[1]    =      0
    arsc.glacctno[2]    =      0
    arsc.glacctno[3]    =      0
    arsc.glacctno[4]    =      0
    arsc.glacctno2[1]   =      0
    arsc.glacctno2[2]   =      0
    arsc.glacctno2[3]   =      0
    arsc.glacctno2[4]   =      0
    arsc.gldeptno[1]    =      0
    arsc.gldeptno[2]    =      0
    arsc.gldeptno[3]    =      0
    arsc.gldeptno[4]    =      0
    arsc.gldeptno2[1]   =      0
    arsc.gldeptno2[2]   =      0
    arsc.gldeptno2[3]   =      0
    arsc.gldeptno2[4]   =      0
    arsc.gldivno[1]     =      0
    arsc.gldivno[2]     =      0
    arsc.gldivno[3]     =      0
    arsc.gldivno[4]     =      0
    arsc.gldivno2[1]    =      0
    arsc.gldivno2[2]    =      0
    arsc.gldivno2[3]    =      0
    arsc.gldivno2[4]    =      0
    arsc.glsubno[1]     =      0
    arsc.glsubno[2]     =      0
    arsc.glsubno[3]     =      0
    arsc.glsubno[4]     =      0
    arsc.glsubno2[1]    =      0
    arsc.glsubno2[2]    =      0
    arsc.glsubno2[3]    =      0
    arsc.glsubno2[4]    =      0
    arsc.gstcert        =
    arsc.gstreg         =
    arsc.highbal        =      0
    arsc.highsaleamt    =      0
    arsc.holdpercd      =      3
    arsc.inbndfrtfl     =      yes
    arsc.keyindex       =      sxlkup_test sxzip_48039 sxstate_MI sxcity_CLINTON_         =
    arsc.langcd         =
    arsc.lastagedt      =      11/11/14
    arsc.lastconsoldt   =      ?
    arsc.lastcostytd    =      0
    arsc.lastdiscytd    =      0
    arsc.lastpayamt     =      0
    arsc.lastpaydt      =      ?
    arsc.lastrebatesytd =      0
    arsc.lastreturnsytd =      0
    arsc.lastrevdt      =      ?
    arsc.lastrtg[1]     =
    arsc.lastrtg[2]     =
    arsc.lastrtgdt[1]   =      ?
    arsc.lastrtgdt[2]   =      ?
    arsc.lastsaleamt    =      0
    arsc.lastsaledt     =      ?
    arsc.lastsalesytd   =      0
    arsc.lastservchgytd =      0
    arsc.laststmtbal    =      0
    arsc.laststmtdt     =      ?
    arsc.lastunearnedytd =      0
    arsc.lbxpostty      =
    arsc.linetermsfl    =      no
    arsc.lookupnm       =      test
    arsc.mastercono     =      0
    arsc.mastercustno   =      0
    arsc.maxord         =      0
    arsc.mediacd        =      0
    arsc.minord         =      0
    arsc.misccrbal      =      0
    arsc.name           =      test
    arsc.nextconsoldt   =      ?
    arsc.nextrevdt      =      ?
    arsc.noinv          =      0
    arsc.noinvcopy      =      1
    arsc.nontaxtype     =
    arsc.nopastdue      =      0
    arsc.nopay          =      0
    arsc.notesfl        =
    arsc.operinit       =      tah
    arsc.ordbal         =      0
    arsc.orderdisp      =
    arsc.other1cd       =
    arsc.other2cd       =
    arsc.outbndfrtfl    =      yes
    arsc.pastduedt      =      ?
    arsc.pdcustno       =      0
    arsc.periodbal[1]   =      0
    arsc.periodbal[2]   =      0
    arsc.periodbal[3]   =      0
    arsc.periodbal[4]   =      0
    arsc.periodbal[5]   =      0
    arsc.phoneno        =      11111111111111
    arsc.pickprno       =      0
    arsc.pickprtfl      =      no
    arsc.pmcashfl       =      no
    arsc.pocontctnm     =
    arsc.pophoneno      =
    arsc.poreqfl        =      yes
    arsc.pricecd        =      1
    arsc.pricetype      =
    arsc.prstmtbal      =      0
    arsc.ptxapfl        =      no
    arsc.ptxarfl        =      no
    arsc.ptxtransbillfl =      no
    arsc.ptxtype        =      STD
    arsc.rebatesdue     =      0
    arsc.rebatesytd     =      0
    arsc.rebatety       =
    arsc.returnsytd     =      0
    arsc.route          =
    arsc.salesmgrfl     =      yes
    arsc.salesterr      =
    arsc.salesytd       =      0
    arsc.securfl        =      no
    arsc.selltype       =      y
    arsc.servchgbal     =      0
    arsc.servchgfl      =      no
    arsc.servchgytd     =      0
    arsc.shipinstr      =
    arsc.shiplbl        =
    arsc.shipreqfl      =      no
    arsc.shipto         =
    arsc.shipviaty      =
    arsc.siccd[1]       =      0
    arsc.siccd[2]       =      0
    arsc.siccd[3]       =      0
    arsc.slsrepin       =
    arsc.slsrepout      =
    arsc.spcdefaultty   =      i
    arsc.state          =      MI
    arsc.statecd        =
    arsc.statementty    =      o
    arsc.statusdt       =      ?
    arsc.statustype     =      yes
    arsc.subfl          =      yes
    arsc.swexaddfl[1]   =      no
    arsc.swexaddfl[2]   =     no
    arsc.swexaddfl[3]   =      no
    arsc.swexaddfl[4]   =      no
    arsc.synccrmfl      =      yes
    arsc.syncmddfl      =      yes
    arsc.taxablety      =      Y
    arsc.taxauth        =
    arsc.taxcert        =
    arsc.taxdt          =      ?
    arsc.taxreg         =
    arsc.tendqtyfl      =      yes
    arsc.termstype      =      n30
    arsc.transdt        =      11/11/14
    arsc.transproc      =      arscr
    arsc.transtm        =      1302
    arsc.uncashbal      =      0
    arsc.unearnedfl     =      yes
    arsc.unearnedytd    =      0
    arsc.user1          =
    arsc.user10         =
    arsc.user11         =
    arsc.user12         =
    arsc.user13         =
    arsc.user14         =
    arsc.user15         =
    arsc.user16         =
    arsc.user17         =
    arsc.user18         =
    arsc.user19         =
    arsc.user2          =
    arsc.user20         =
    arsc.user21         =
    arsc.user22         =
    arsc.user23         =
    arsc.user24         =
    arsc.user3          =
    arsc.user4          =
    arsc.user5          =
    arsc.user6          =      0
    arsc.user7          =      0
    arsc.user8          =      ?
    arsc.user9          =      ?
    arsc.webpage        =
    arsc.webpageext     =
    arsc.weightty       =
    arsc.whse           =
    arsc.wodisccd       =      1
    arsc.xxc1           =
    arsc.xxc15          =
    arsc.xxc2           =
    arsc.xxc3           =
    arsc.xxc4           =
    arsc.xxda1          =      ?
    arsc.xxda14         =      ?
    arsc.xxda15         =      ?
    arsc.xxda2          =      ?
    arsc.xxda3          =      ?
    arsc.xxde11         =      0
    arsc.xxde13         =      0
    arsc.xxde14         =      0
    arsc.xxde15         =      0
    arsc.xxde2          =      0
    arsc.xxi1           =      0
    arsc.xxi13          =      0
    arsc.xxi14          =      0
    arsc.xxi15          =      0
    arsc.xxi2           =      0
    arsc.xxl13          =      yes
    arsc.xxl14          =      no
    arsc.xxl15          =      no
    arsc.xxl2           =      no
    arsc.zipcd          =      48039
