/* p-kpzt.i */
/* ------------------------------------------------------------------------
  Program Name :  P-kpzt.i

  Description  :  Display module for POEZQ using xxixx.i

  Author       :  Thomas Herzog

 -------------------------------------------------------------------------- */
