g-prod
g-whse
s-source
s-sourceno
s-status
/* Section 3 */
apsv.name           when avail apsv
icsw.arpvendno      when icsw.arpvendno ne 0
icsl.buyer          when avail icsl
icsw.prodline
icsw.famgrptype
icsw.lastpowtdt
icsw.lastrcptdt
icsw.lastinvdt
icsw.lastsodt
icsw.lastcntdt
icsw.leadtmavg
s-poduedt
s-wtduedt
s-safeallow
s-seastext
s-seasord
icsw.unitbuy
icsw.unitstnd
icsw.unitwt
icsp.unitstock
s-alttext
