do:
/* p-oeetar2.i Additional interactive displays    */ 

{w-smsn.i {1}.slsrepout no-lock}
if avail smsn then
  x-slsoname = {1}.slsrepout + "- " + smsn.name.
{w-smsn.i {1}.slsrepin no-lock}
if avail smsn then
  x-slsiname = {1}.slsrepin + "- " + smsn.name.

{w-smsn.i {1}.user1 no-lock}
if avail smsn then
  x-CSRname = {1}.user1 + "- " + smsn.name.

  
  
assign x-ctype   = arsc.custtype
       x-prctype = {1}.pricetype
       x-shipto  = g-shipto.


end.