assign v-oneinthedirection = false.
if "{&direction}" = "prev" then
  do:
  find t-whseinfo where t-whseinfo.whse = s-whse[1] no-lock no-error.
  if not avail t-whseinfo then
    next.
  assign v-inx = 12.
  end.  
if "{&direction}" = "next" then
  do:
  find t-whseinfo where t-whseinfo.whse = s-whse[12] no-lock no-error.
  if not avail t-whseinfo then
    next.
  assign v-inx = 1.
  end.  

do v-inx2 = 1 to 12:    
  find {&direction} t-whseinfo no-lock no-error.
  if avail t-whseinfo and v-oneinthedirection = false then
    do:
    assign v-oneinthedirection = true.
    end.
  else
  if not avail t-whseinfo and v-oneinthedirection = false then
    do:
    leave.
    end.
    
  if "{&direction}" = "prev" and avail t-whseinfo then do:
      assign s-whse [v-inx] =  t-whseinfo.whse.
      if t-whseinfo.zavail > 999 then
         assign disp-avail = "+++".
      else
        do:
        if t-whseinfo.zavail < 0 then
          assign disp-avail = "---".
        else
          assign disp-avail = string(t-whseinfo.zavail,"zz9").
      end.
      if t-whseinfo.zoo > 999 then
         assign disp-oo = "+++".
      else 
        do:
        if t-whseinfo.zoo < 0 then
          assign disp-oo = "---".
        else
          assign disp-oo = string(t-whseinfo.zoo,"zz9-").
      end.
      assign s-wavail[v-inx] = disp-avail + "/" + disp-oo
      /*
      assign s-wavail[v-inx] = string(t-whseinfo.zavail,"zzzzzz9")
      */
             v-inx = v-inx - 1.
  end.
  if "{&direction}" = "next" and avail t-whseinfo then do:
      assign s-whse [v-inx] =  t-whseinfo.whse.
      if t-whseinfo.zavail > 999 then
        assign disp-avail = "+++".
      else
        do:
        if t-whseinfo.zavail < 0 then
          assign disp-avail = "---".
        else
          assign disp-avail = string(t-whseinfo.zavail,"zz9").
      end.
      if t-whseinfo.zoo > 999 then
        assign disp-oo = "+++".
      else
        do:
        if t-whseinfo.zoo < 0 then
          assign disp-oo = "---".
        else
          assign disp-oo = string(t-whseinfo.zoo,"zz9").
      end.
      assign s-wavail[v-inx] = disp-avail + "/" + disp-oo
      /*
      assign s-wavail[v-inx] = string(t-whseinfo.zavail,"zzzzzz9")
      */
             v-inx = v-inx + 1.
  end.
  if "{&direction}" = "prev" and not avail t-whseinfo then
      assign s-whse [v-inx] =  "    "
             s-wavail[v-inx] = "       "
             v-inx = v-inx - 1.
  if "{&direction}" = "next" and not avail t-whseinfo then
      assign s-whse [v-inx] =  "    "         
             s-wavail[v-inx] =  "       " 
             v-inx = v-inx + 1.
             
end.           

find t-whseinfo where t-whseinfo.whse = s-whse[1] no-lock no-error.
if avail t-whseinfo and t-whseinfo.arptp = "V" then
  s-whse[1]:dcolor in frame f-whses = 2.
else
  s-whse[1]:dcolor in frame f-whses = 0.
find t-whseinfo where t-whseinfo.whse = s-whse[2] no-lock no-error.
if avail t-whseinfo and t-whseinfo.arptp = "V" then
  s-whse[2]:dcolor in frame f-whses = 2.
else
  s-whse[2]:dcolor in frame f-whses = 0.
find t-whseinfo where t-whseinfo.whse = s-whse[3] no-lock no-error.
if avail t-whseinfo and t-whseinfo.arptp = "V" then
  s-whse[3]:dcolor in frame f-whses = 2.
else
  s-whse[3]:dcolor in frame f-whses = 0.
find t-whseinfo where t-whseinfo.whse = s-whse[4] no-lock no-error.
if avail t-whseinfo and t-whseinfo.arptp = "V" then
  s-whse[4]:dcolor in frame f-whses = 2.
else
  s-whse[4]:dcolor in frame f-whses = 0.
find t-whseinfo where t-whseinfo.whse = s-whse[5] no-lock no-error.
if avail t-whseinfo and t-whseinfo.arptp = "V" then
  s-whse[5]:dcolor in frame f-whses = 2.
else
  s-whse[5]:dcolor in frame f-whses = 0.
find t-whseinfo where t-whseinfo.whse = s-whse[6] no-lock no-error.
if avail t-whseinfo and t-whseinfo.arptp = "V" then
  s-whse[6]:dcolor in frame f-whses = 2.
else
  s-whse[6]:dcolor in frame f-whses = 0.
find t-whseinfo where t-whseinfo.whse = s-whse[7] no-lock no-error.
if avail t-whseinfo and t-whseinfo.arptp = "V" then
  s-whse[7]:dcolor in frame f-whses = 2.
else
  s-whse[7]:dcolor in frame f-whses = 0.
find t-whseinfo where t-whseinfo.whse = s-whse[8] no-lock no-error.
if avail t-whseinfo and t-whseinfo.arptp = "V" then
  s-whse[8]:dcolor in frame f-whses = 2.
else
  s-whse[8]:dcolor in frame f-whses = 0.
find t-whseinfo where t-whseinfo.whse = s-whse[9] no-lock no-error.
if avail t-whseinfo and t-whseinfo.arptp = "V" then
  s-whse[9]:dcolor in frame f-whses = 2.
else
  s-whse[9]:dcolor in frame f-whses = 0.
find t-whseinfo where t-whseinfo.whse = s-whse[10] no-lock no-error.
if avail t-whseinfo and t-whseinfo.arptp = "V" then
  s-whse[10]:dcolor in frame f-whses = 2.
else
  s-whse[10]:dcolor in frame f-whses = 0.
find t-whseinfo where t-whseinfo.whse = s-whse[11] no-lock no-error.
if avail t-whseinfo and t-whseinfo.arptp = "V" then
  s-whse[11]:dcolor in frame f-whses = 2.
else
  s-whse[11]:dcolor in frame f-whses = 0.
find t-whseinfo where t-whseinfo.whse = s-whse[12] no-lock no-error.
if avail t-whseinfo and t-whseinfo.arptp = "V" then
  s-whse[12]:dcolor in frame f-whses = 2.
else
  s-whse[12]:dcolor in frame f-whses = 0.

display 
  s-whse[1]   s-whse[2]   s-whse[3]   s-whse[4]    s-whse[5]    s-whse[6]
  s-wavail[1] s-wavail[2] s-wavail[3] s-wavail[4]  s-wavail[5]  s-wavail[6]
  s-whse[7]   s-whse[8]   s-whse[9]   s-whse[10]   s-whse[11]   s-whse[12]
  s-wavail[7] s-wavail[8] s-wavail[9] s-wavail[10] s-wavail[11] s-wavail[12]
  with frame f-whses.
