assign var-lineno = integer(substring(frame-value,1,3))
       var-prod =  substring(frame-value,5,24).

find kpsk use-index k-kpsk where 
     kpsk.cono = g-cono and
     kpsk.prod = ip-prod and 
     kpsk.seqno = var-lineno and
     kpsk.comptype = "c" 
     no-lock no-error.
