assign var-lineno = integer(substring(frame-value,1,3))
       var-prod =  substring(frame-value,5,24).


find oeelk use-index k-oeelk where
     oeelk.cono = g-cono and
     oeelk.ordertype = "o" and
     oeelk.orderno = g-orderno and
     oeelk.ordersuf = g-ordersuf and
     oeelk.lineno = ip-lineno and 
     oeelk.seqno = var-lineno
     no-lock no-error.
     
