assign var-lineno = integer(substring(frame-value,1,3))
       var-prod =  substring(frame-value,5,24).

find oeel use-index k-oeel where
     oeel.cono = g-cono and
     oeel.orderno = g-orderno and
     oeel.ordersuf = g-ordersuf and 
     oeel.lineno = var-lineno
     no-lock no-error.
