


procedure introduce_stats:

if v-testmode then
   v-printdir = "/mod20b/workfiles/".
assign v-process = false.





if search (v-printdir + "tbrdrdcu1.smk") <> ? then
  do:
  v-process = true.
  run sdirankfiles.p (input  "tbrdrdcu1").
/*
  output stream zprd to value(v-printdir + "tbrdrdcu1.sxk").
  input stream xprd from value(v-printdir + "tbrdrdcu1.smk").


  repeat:
    readkey stream xprd.
    if lastkey = -2 then leave.
    if lastkey = -1 then next.
    if lastkey = 0 then
      put stream zprd control NULL.
    if lastkey = 13 then
      put stream zprd control chr(13) chr(10).
    else
      put stream zprd control chr(lastkey).

  end.    
input  stream xprd close.
output stream zprd close.

os-command value("chmod 666 " + v-printdir + "tbrdrdcu1.smk").
os-command
value("cp " + v-printdir + "tbrdrdcu1.smk " + v-printdir + "tbrdrdcu1.smk.bk").
os-command value("rm " + v-printdir + "tbrdrdcu1.smk").
*/
end.

if search (v-printdir + "tbrdrdcp1.smk") <> ? then
  do:
  v-process = true.
  run sdirankfiles.p (input  "tbrdrdcp1").
/*  
  output stream zpcd to value(v-printdir + "tbrdrdcp1.sxk").
  input stream xpcd from value(v-printdir + "tbrdrdcp1.smk").

  repeat:
    readkey stream xpcd.
    if lastkey = -2 then leave.
    if lastkey = -1 then next.
    if lastkey = 0 then
      put stream zpcd control NULL.
    if lastkey = 13 then
      put stream zpcd control chr(13) chr(10).
    else
      put stream zpcd control chr(lastkey).

  end.    

input  stream xpcd close.
output stream zpcd close.

os-command value("chmod 666 " + v-printdir + "tbrdrdcp1.smk").
os-command
value("cp " + v-printdir + "tbrdrdcp1.smk " + v-printdir + "tbrdrdcp1.smk.bk").
os-command value("rm " + v-printdir + "tbrdrdcp1.smk").
*/
end.







if search (v-printdir + "tbrdrdcu2.smk") <> ? then
  do:
  v-process = true.

  run sdirankfiles.p (input  "tbrdrdcu2").
/*
  output stream zprd to value(v-printdir + "tbrdrdcu2.sxk").
  input stream xprd from value(v-printdir + "tbrdrdcu2.smk").


  repeat:
    readkey stream xprd.
    if lastkey = -2 then leave.
    if lastkey = -1 then next.
    if lastkey = 0 then
      put stream zprd control NULL.
    if lastkey = 13 then
      put stream zprd control chr(13) chr(10).
    else
      put stream zprd control chr(lastkey).

  end.    
input  stream xprd close.
output stream zprd close.

os-command value("chmod 666 " + v-printdir + "tbrdrdcu2.smk").
os-command
value("cp " + v-printdir + "tbrdrdcu2.smk " + v-printdir + "tbrdrdcu2.smk.bk").
os-command value("rm " + v-printdir + "tbrdrdcu2.smk").
*/
end.

if search (v-printdir + "tbrdrdcp2.smk") <> ? then
  do:
  v-process = true.
 
  run sdirankfiles.p (input  "tbrdrdcp2").
/*  
  output stream zpcd to value(v-printdir + "tbrdrdcp2.sxk").
  input stream xpcd from value(v-printdir + "tbrdrdcp2.smk").

  repeat:
    readkey stream xpcd.
    if lastkey = -2 then leave.
    if lastkey = -1 then next.
    if lastkey = 0 then
      put stream zpcd control NULL.
    if lastkey = 13 then
      put stream zpcd control chr(13) chr(10).
    else
      put stream zpcd control chr(lastkey).

  end.    

input  stream xpcd close.
output stream zpcd close.

os-command value("chmod 666 " + v-printdir + "tbrdrdcp2.smk").
os-command
value("cp " + v-printdir + "tbrdrdcp2.smk " + v-printdir + "tbrdrdcp2.smk.bk").
os-command value("rm " + v-printdir + "tbrdrdcp2.smk").
*/
end.



if search (v-printdir + "tbrdrdcu3.smk") <> ? then
  do:
  v-process = true.
  run sdirankfiles.p (input  "tbrdrdcu3").
/*
  output stream zprd to value(v-printdir + "tbrdrdcu3.sxk").
  input stream xprd from value(v-printdir + "tbrdrdcu3.smk").


  repeat:
    readkey stream xprd.
    if lastkey = -2 then leave.
    if lastkey = -1 then next.
    if lastkey = 0 then
      put stream zprd control NULL.
    if lastkey = 13 then
      put stream zprd control chr(13) chr(10).
    else
      put stream zprd control chr(lastkey).

  end.    
input  stream xprd close.
output stream zprd close.

os-command value("chmod 666 " + v-printdir + "tbrdrdcu3.smk").
os-command
value("cp " + v-printdir + "tbrdrdcu3.smk " + v-printdir + "tbrdrdcu3.smk.bk").
os-command value("rm " + v-printdir + "tbrdrdcu3.smk").
*/
end.

if search (v-printdir + "tbrdrdcp3.smk") <> ? then
  do:
  v-process = true.

  run sdirankfiles.p (input  "tbrdrdcp3").
/*
  output stream zpcd to value(v-printdir + "tbrdrdcp3.sxk").
  input stream xpcd from value(v-printdir + "tbrdrdcp3.smk").

  repeat:
    readkey stream xpcd.
    if lastkey = -2 then leave.
    if lastkey = -1 then next.
    if lastkey = 0 then
      put stream zpcd control NULL.
    if lastkey = 13 then
      put stream zpcd control chr(13) chr(10).
    else
      put stream zpcd control chr(lastkey).

  end.    
input  stream xpcd close.
output stream zpcd close.

os-command value("chmod 666 " + v-printdir + "tbrdrdcp3.smk").
os-command
value("cp " + v-printdir + "tbrdrdcp3.smk " + v-printdir + "tbrdrdcp3.smk.bk").
os-command value("rm " + v-printdir + "tbrdrdcp3.smk").
*/
end.




if search (v-printdir + "tbrdrdcu4.smk") <> ? then
  do:
  v-process = true.

  run sdirankfiles.p (input  "tbrdrdcu4").
/*  
  output stream zprd to value(v-printdir + "tbrdrdcu4.sxk").
  input stream xprd from value(v-printdir + "tbrdrdcu4.smk").


  repeat:
    readkey stream xprd.
    if lastkey = -2 then leave.
    if lastkey = -1 then next.
    if lastkey = 0 then
      put stream zprd control NULL.
    if lastkey = 13 then
      put stream zprd control chr(13) chr(10).
    else
      put stream zprd control chr(lastkey).

  end.    
input  stream xprd close.
output stream zprd close.

os-command value("chmod 666 " + v-printdir + "tbrdrdcu4.smk").
os-command
value("cp " + v-printdir + "tbrdrdcu4.smk " + v-printdir + "tbrdrdcu4.smk.bk").
os-command value("rm " + v-printdir + "tbrdrdcu4.smk").
*/
end.

if search (v-printdir + "tbrdrdcp4.smk") <> ? then
  do:
  v-process = true.

  run sdirankfiles.p (input  "tbrdrdcp4").
/*
  output stream zpcd to value(v-printdir + "tbrdrdcp4.sxk").
  input stream xpcd from value(v-printdir + "tbrdrdcp4.smk").

  repeat:
    readkey stream xpcd.
    if lastkey = -2 then leave.
    if lastkey = -1 then next.
    if lastkey = 0 then
      put stream zpcd control NULL.
    if lastkey = 13 then
      put stream zpcd control chr(13) chr(10).
    else
      put stream zpcd control chr(lastkey).

  end.    



input  stream xpcd close.
output stream zpcd close.

os-command value("chmod 666 " + v-printdir + "tbrdrdcp4.smk").
os-command
value("cp " + v-printdir + "tbrdrdcp4.smk " + v-printdir + "tbrdrdcp4.smk.bk").
os-command value("rm " + v-printdir + "tbrdrdcp4.smk").
*/
end.



if v-process = true then
  do:
  run tableload1 (input 1).
  run tableload2 (input 1).
/*
  run tableload1 (input 5).
  run tableload2 (input 5).
*/
  run tableload1 (input 2).
  run tableload2 (input 2).
  run tableload1 (input 3).
  run tableload2 (input 3).
  run tableload1 (input 4).
  run tableload2 (input 4).
  end.




/*
  do v-name = 1 to 4:

  input stream xprd from 
    value(v-printdir + "tbrdrdcu" + string(v-name,"9") + ".sxk").
  input stream xpcd from 
    value(v-printdir + "tbrdrdcp" + string(v-name,"9") + ".sxk").


  assign j-x = 0.

  
  repeat:

    assign 
      v-region     = ""
      v-district   = ""
      v-pcat       = ""
      v-cust       = 0
      v-prod       = ""
      v-ytd        = 0
      v-lytd       = 0
      v-skip       = ""
      v-cust       = 0
      v-shipto     = ""
      v-lsttrans   = ""
      v-lstsale    = 0.
    if j-x = 0 then 
      do:
      import stream xpcd delimiter "~011"
        v-skip.
      import stream xpcd delimiter "~011"
        v-skip.
      j-x = 2.
      end.
   import stream xpcd delimiter "~011"
     v-skip
     v-region
     v-district
     v-cust
     v-skip    /* Cust Name                 */
     v-shipto
     v-pcat
     v-skip    /* description               */
     v-skip    /* Month 1 Sales             */
     v-skip    /* Month 1 Margin            */
     v-skip    /* Month 2 Sales             */
     v-skip    /* Month 2 Margin            */
     v-skip    /* Month 3 Sales             */
     v-skip    /* Month 3 Margin            */
     v-ytd
     v-skip    /* Current YTD margin        */
     v-skip    /* Previous YTD Sales        */
     v-skip    /* Previous YTD Margin       */
     v-skip    /* Variance Sales            */
     v-skip    /* Variance Difference %     */
     v-skip    /* Variance Margin           */
     v-lytd    
     v-skip    /* LYTD Margin               */
     v-skip    /* Backlog                   */
     v-skip.   /* Backlog Margin            */
   if /* v-name = 2 or */ v-name = 1 then
     assign v-ytd = 0.
   else if v-name = 4 or v-name = 3 then
     assign v-lytd = 0 
            v-ytd = 0. 
   j-x = j-x + 1.
   if j-x < 3 or v-region = "final" then
     next.    /* Get past the Excel Header protion of the file */


   if v-region = "" or
      substring(v-region,1,1) = "0" or
      substring(v-region,1,1) = "z" or 
      substring(v-region,1,1) = "x" or 
      v-district = "n500" then
     next.
     /*
     assign v-region = "z"
            v-district = " 888".
     */
 

   if v-ytd < 0  then
      v-ytd = v-ytd * -1.
   if v-lytd < 0 then
      v-lytd = v-lytd * -1.
   assign v-cust = 0 
          v-shipto = " ".
   
   find sppcd where
        sppcd.custno = v-cust and
        sppcd.shipto = v-shipto and
        sppcd.pcat = v-pcat and
        sppcd.region = v-region and
        sppcd.district = substring(v-district,2,3) no-lock no-error.
   if avail sppcd then
     do:
     assign sppcd.sales = sppcd.sales + 
                          (if (v-ytd + v-lytd) = 0 then
                            .0000001
                           else
                            (v-ytd + v-lytd)).
     end.
   else
     do:
     create sppcd.
     assign sppcd.custno = v-cust
            sppcd.shipto = v-shipto
            sppcd.region = v-region
            sppcd.district = substring(v-district,2,3)
            sppcd.pcat = v-pcat
            sppcd.sales = 
                          (if (v-ytd + v-lytd) = 0 then
                            .0000001
                           else
                            (v-ytd + v-lytd))
            sppcd.xpct = 0. 

     end.
   find t-sppcd where
        t-sppcd.pcat = v-pcat no-lock no-error.
   if avail t-sppcd then
     do:
     assign t-sppcd.sales = t-sppcd.sales +
                          (if (v-ytd + v-lytd) = 0 then
                            .0000001
                           else
                            (v-ytd + v-lytd)).
 
     end.
   else
     do:
     create t-sppcd.
     assign
            t-sppcd.pcat = v-pcat
            t-sppcd.sales = 
                          (if (v-ytd + v-lytd) = 0 then
                            .0000001
                           else
                            (v-ytd + v-lytd)).
     end.
   end.
input stream xpcd close.   
assign j-x = 0.
  
  repeat:

    assign 
      v-region     = ""
      v-district   = ""
      v-pcat       = ""
      v-cust       = 0
      v-prod       = ""
      v-ytd        = 0
      v-lytd       = 0
      v-skip       = ""
      v-cust       = 0
      v-shipto     = ""
      v-lsttrans   = ""
      v-lstsale    = 0.
    if j-x = 0 then 
      do:
      import stream xprd delimiter "~011"
        v-skip.
      import stream xprd delimiter "~011"
        v-skip.
      j-x = 2.
      end.
    
    import stream xprd delimiter "~011"
     v-skip
     v-region
     v-district
     v-cust
     v-skip
     v-shipto
     v-prod
     v-skip    /* Month 1 Sales             */
     v-skip    /* Month 1 Margin            */
     v-skip    /* Month 2 Sales             */
     v-skip    /* Month 2 Margin            */
     v-skip    /* Month 3 Sales             */
     v-skip    /* Month 3 Margin            */
     v-ytd
     v-skip    /* Current YTD margin        */
     v-skip    /* Previous YTD Sales        */
     v-skip    /* Previous YTD Margin       */
     v-skip    /* Variance Sales            */
     v-skip    /* Variance Difference %     */
     v-skip    /* Variance Margin           */
     v-lytd    
     v-skip    /* LYTD Margin               */
     v-skip    /* Backlog                   */
     v-skip    /* Backlog Margin            */
     v-lstsale
     v-lsttrans.
   
   if /* v-name = 2 or */ v-name = 1 then
     assign v-ytd = 0.
   else if v-name = 4 or v-name = 3 then
     assign v-lytd = 0 
            v-ytd = 0. 
    
   j-x = j-x + 1.
   if j-x < 3 or v-region = "final" then
     next.    /* Get past the Excel Header protion of the file */

      
   if v-region = "" or
      substring(v-region,1,1) = "0" or 
      substring(v-region,1,1) = "z" or
      substring(v-region,1,1) = "x" or 
      v-district = "n500" then
     next.
     /*
     assign v-region = "z"
            v-district = " 888".
     */
 
   if v-ytd < 0  then
      v-ytd = v-ytd * -1.
   if v-lytd < 0 then
      v-lytd = v-lytd * -1.
   

   if length(v-prod) > 25 then
     next.
   
   find spprd where
        spprd.custno = v-cust and
        spprd.shipto = v-shipto and
        spprd.prod = v-prod and
        spprd.region = v-region and
        spprd.district = substring(v-district,2,3) no-lock no-error.
   if avail spprd then
     do:
     assign spprd.sales = spprd.sales + v-ytd + v-lytd.
     if (v-ytd + v-lytd) = 0 then
       assign spprd.sales =  spprd.sales + .0000001.
          /* force presents for percent */
     end.
   else
     do:
     create spprd.
     assign spprd.custno = v-cust
            spprd.shipto = v-shipto
            spprd.region = v-region
            spprd.district = substring(v-district,2,3)
            spprd.prod = v-prod
            spprd.sales = v-ytd + v-lytd
            spprd.lstsale  = v-lstsale
            spprd.lsttrans = v-lsttrans
            spprd.xpct = 0.
     if spprd.sales = 0 then
       assign spprd.sales = .0000001.
     end.
     
   find t-spprd where
        t-spprd.prod = v-prod no-lock no-error.
   if avail t-spprd then
     do:
     assign t-spprd.sales = t-spprd.sales + v-ytd + v-lytd.
     if (v-ytd + v-lytd) = 0 then
       assign t-spprd.sales =  t-spprd.sales + .0000001.
     end.
   else
     do:
     create t-spprd.
     assign
            t-spprd.prod  = v-prod
            t-spprd.sales = v-ytd + v-lytd.
     if t-spprd.sales = 0 then
       assign t-spprd.sales = .0000001.
     end.
   end.   
   
   input stream xprd close.   
 
   end.
*/
if v-process = true then
  do:
  output  stream xprd to value(v-printdir + "tbrdprods.sxk").
  output  stream xpcd to value(v-printdir + "tbrdpcats.sxk").
  os-command value("chmod 666 " + v-printdir + "tbrdprods.sxk").
  os-command value("chmod 666 " + v-printdir + "tbrdpcats.sxk").


  for each spprd no-lock:
    export stream xprd spprd.
  end.  
  
  for each sppcd no-lock:
    export stream xpcd sppcd.
  end.  
 output stream xprd close.
 output stream xpcd close.
 end.


 if v-process = false then
   do:
   input stream xprd from value(v-printdir + "tbrdprods.sxk").
   input stream xpcd from value(v-printdir + "tbrdpcats.sxk").
   repeat:
     create spprd.
     import stream xprd spprd.
   end. 

   repeat:
     create sppcd.
     import stream xpcd sppcd.
   end. 

   for each spprd no-lock:
     find t-spprd where
          t-spprd.prod = spprd.prod no-lock no-error.
     if avail t-spprd then
       do:
       assign t-spprd.sales = t-spprd.sales + spprd.sales.
       if spprd.sales = 0 then
         assign t-spprd.sales =  t-spprd.sales + .0000001.
       end.
     else
       do:
       create t-spprd.
       assign
              t-spprd.prod  = spprd.prod
              t-spprd.sales = spprd.sales.
       if t-spprd.sales = 0 then
         assign t-spprd.sales = .0000001.
       end.
   end.   

  for each sppcd no-lock:
    find t-sppcd where
          t-sppcd.pcat = sppcd.pcat no-lock no-error.
     if avail t-sppcd then
       do:
       assign t-sppcd.sales = t-sppcd.sales +
                            (if sppcd.sales = 0 then
                              .0000001
                             else
                              (sppcd.sales)).
    
       end.
     else
       do:
       create t-sppcd.
       assign
              t-sppcd.pcat = sppcd.pcat
              t-sppcd.sales = 
                            (if (sppcd.sales) = 0 then
                              .0000001
                             else
                              (sppcd.sales)).
       end.
      end.
     end.
 
 end.



procedure weight_item2:
  define input-output parameter j-range    as int no-undo.

  define input        parameter j-prod     as char format "x(24)"
                                                        no-undo.
  define input        parameter j-pcat     as char format "x(24)"
                                                        no-undo.
  define input        parameter j-cono     like icsw.cono
                                                        no-undo.
  define input        parameter j-oh       like icsw.qtyonhand
                                                        no-undo.


  assign v-ohper = 0
         v-totreg = 0
         v-ooqty = 0.
  for each xpart:
    delete xpart.
  end.

  for each treg:
    delete treg.
  end.

  if j-oh > 0 then
     do:
     v-ohper = 1.
     run zsdiopenzc.p (input j-prod).  
      
     for each treg:
       if substring(treg.mgr,1,1) = " " then
         delete treg.
       else    
         do:
         assign v-ooqty = treg.qty + v-ooqty
                treg.pct = treg.qty / j-oh
                v-totreg = treg.qty + v-totreg.

         end.
     end.

     if v-ooqty > j-oh then
      do:
      assign j-oh = v-ooqty
             v-ohper = 0
             v-totreg = 0
             v-ooqty = 0.


      for each treg:
       if substring(treg.mgr,1,1) = " " then
         delete treg.
       else    
         do:
         assign v-ooqty = treg.qty + v-ooqty
                treg.pct = treg.qty / j-oh
                v-totreg = treg.qty + v-totreg.
         end.
     end.
     end.
     assign v-ohper = 1 - (if j-oh le 0 then
                             0
                           else
                           if v-ooqty < j-oh then
                             (v-ooqty / j-oh)
                           else
                             1).
 
     
     end.
  else
    assign v-ohper = 1
           j-oh = 0.                                                    
  assign  j-x = 0.
             
  find first t-spprd where t-spprd.prod = j-prod 
                          no-lock no-error.

  if avail t-spprd and v-ohper <> 0 then
    do:
    j-x = 0.
    for each spprd use-index rdpprd where spprd.prod = t-spprd.prod no-lock:
      find treg where treg.mgr =
                      string(spprd.region + spprd.district) and
                      treg.custno = spprd.custno and
                      treg.shipto = spprd.shipto no-error.
      
      v-calper = 
                  ( (if t-spprd.sales = 0 then
                      0
                     else  (spprd.sales / t-spprd.sales))               
                   * v-ohper) +
                  (if avail treg then
                     treg.pct
                   else
                     0).

      if avail treg then
        delete treg.


      if v-calper > .0000001 then
        do:
        j-x = j-x + 1.
        create xpart.
        assign
            xpart.wxreg =
                        string(spprd.region,"x(1)") +
                        string(spprd.district,"x(3)") 
            xpart.wxcust    = spprd.custno
            xpart.wxshipto  = spprd.shipto
            xpart.wxlst    = string(spprd.lstsale,"999999") +
                              spprd.lsttrans
            xpart.wxpct = 
              v-calper.
        
        end.
      end.
    end.
  else
  if v-ooqty = 0 then
    do:
    find first t-sppcd where t-sppcd.pcat = j-pcat and
                             t-sppcd.sales <> 0 no-lock no-error.
    if avail t-sppcd  then
      do:
      j-x = 0.
      for each sppcd use-index rdccat
                     where sppcd.pcat = t-sppcd.pcat and
                           sppcd.sales <> 0 no-lock:
        if t-sppcd.sales = 0 then
          v-calper = 0.
        else  
          v-calper = (sppcd.sales / t-sppcd.sales).
        
        if v-calper <> 0 then
          do:
          j-x = j-x + 1.
          create xpart.
          assign
              xpart.wxreg =
                          string(sppcd.region,"x(1)") +
                          string(sppcd.district,"x(3)") 
              xpart.wxcust    = sppcd.custno
              xpart.wxshipto  = sppcd.shipto
              xpart.wxlst    = string(0,"999999") +
                                " "
              xpart.wxpct = 
                v-calper.
          end.
        end.
      end.
    end.
  if v-ooqty <> 0 then
    do:
    for each treg:
      if v-totreg = 0 then
        v-calper = 0.
      else
        v-calper =  treg.qty / j-oh.
      if v-calper <> 0 then
        do:
        j-x = j-x + 1.     
        create xpart.
        assign
            xpart.wxreg =
                        string(substring(treg.mgr,1,1),"x(1)") +
                        string(substring(treg.mgr,2,3),"x(3)") 
            xpart.wxcust    = treg.custno
            xpart.wxshipto  = treg.shipto
            xpart.wxlst    = string(0,"999999") +
                              " "
            xpart.wxpct = 
              v-calper.
        end.
      delete treg.                 
      end.
    end.




 if j-x = 0 then
   do:
   do v-inx = 1 to 5:
     v-regions[v-inx] = 0.
   end.
   v-cnt = 0.
   for each icsw where icsw.cono = j-cono and
                       icsw.prod = j-prod no-lock:
     find icsd where icsd.cono = j-cono and
                     icsd.whse = icsw.whse no-lock no-error.
     if avail icsd then
       do:
       v-cnt = v-cnt + 1.
       if icsd.region = "sout" then
          v-regions[1] = v-regions[1] + 1.
       else
       if icsd.region = "west" then
          v-regions[2] = v-regions[2] + 1.                                              else
       if icsd.region = "east" then
          v-regions[2] = v-regions[2] + 1.                                              else
       if icsd.region = "nort" then
          v-regions[2] = v-regions[2] + 1.                                              else
       if icsd.region = "filt" then
          v-regions[3] = v-regions[3] + 1.                                              else
       if icsd.region = "mobl" then
          v-regions[4] = v-regions[4]+ 1.                                               else
          v-regions[5] = v-regions[5] + 1.                                             end.        
   end.
   
   do v-inx = 1 to 5:
     if v-regions[v-inx] <> 0 then
       if v-inx = 1 then
         do:
         assign j-x = j-x + 1.
         create xpart.
         assign
            xpart.wxreg =  "s000"
            xpart.wxcust    = 0
            xpart.wxshipto  = " "
            xpart.wxlst    = string(0,"999999") +
                              " "
            xpart.wxpct = 
              (v-regions[v-inx] / v-cnt).
         end.          
       else
       if v-inx = 2 then
          do:
         assign j-x = j-x + 1.
         create xpart.
         assign
            xpart.wxreg =  "n000"
            xpart.wxcust    = 0
            xpart.wxshipto  = " "
            xpart.wxlst    = string(0,"999999") +
                              " "
            xpart.wxpct = 
              (v-regions[v-inx] / v-cnt).
         end. 
       else
       if v-inx = 3 then
        do:
         assign j-x = j-x + 1.
         create xpart.
         assign
            xpart.wxreg =  "f000"
            xpart.wxcust    = 0
            xpart.wxshipto  = " "
            xpart.wxlst    = string(0,"999999") +
                              " "
            xpart.wxpct = 
              (v-regions[v-inx] / v-cnt).
         end. 
       else
       if v-inx = 4 then
        do:
         assign j-x = j-x + 1.
         create xpart.
         assign
            xpart.wxreg =  "m000"
            xpart.wxcust    = 0
            xpart.wxshipto  = " "
            xpart.wxlst    = string(0,"999999") +
                              " "
            xpart.wxpct = 
              (v-regions[v-inx] / v-cnt).
         end. 
       else
       if v-inx = 5 then
        do:
         assign j-x = j-x + 1.
         create xpart.
         assign
            xpart.wxreg =  "z000"
            xpart.wxcust    = 0
            xpart.wxshipto  = " "
            xpart.wxlst    = string(0,"999999") +
                              " "
            xpart.wxpct = 
              (v-regions[v-inx] / v-cnt).

         end. 


       end.     
   end.
 if j-x = 0 then
   do:
   j-x = 1.
   create xpart.
   assign
        xpart.wxreg =  "z000"
        xpart.wxcust    = 0
        xpart.wxshipto  = " "
        xpart.wxlst    = string(0,"999999") +
                           " "
        xpart.wxpct = 
           1.00.

   end.
 assign j-range = j-x.
 end. 
           



Procedure tableload1:
define input parameter  iv-name as integer no-undo.

  input stream xpcd from 
    value(v-printdir + "tbrdrdcp" + string(iv-name,"9") + ".sxk").



  assign j-x = 0.

  
  repeat:

    assign 
      v-region     = ""
      v-district   = ""
      v-pcat       = ""
      v-cust       = 0
      v-prod       = ""
      v-ytd        = 0
      v-lytd       = 0
      v-skip       = ""
      v-cust       = 0
      v-shipto     = ""
      v-lsttrans   = ""
      v-lstsale    = 0.
    if j-x = 0 then 
      do:
      import stream xpcd delimiter "~011"
        v-skip.
      import stream xpcd delimiter "~011"
        v-skip.
      j-x = 2.
      end.
   import stream xpcd delimiter "~011"
     v-skip
     v-region
     v-district
     v-cust
     v-skip    /* Cust Name                 */
     v-shipto
     v-pcat
     v-skip    /* description               */
     v-skip    /* Month 1 Sales             */
     v-skip    /* Month 1 Margin            */
     v-skip    /* Month 2 Sales             */
     v-skip    /* Month 2 Margin            */
     v-skip    /* Month 3 Sales             */
     v-skip    /* Month 3 Margin            */
     v-ytd
     v-skip    /* Current YTD margin        */
     v-skip    /* Previous YTD Sales        */
     v-skip    /* Previous YTD Margin       */
     v-skip    /* Variance Sales            */
     v-skip    /* Variance Difference %     */
     v-skip    /* Variance Margin           */
     v-lytd    
     v-skip    /* LYTD Margin               */
     v-skip    /* Backlog                   */
     v-skip.   /* Backlog Margin            */
   if  /* iv-name = 5 or */ iv-name = 1 then
     assign v-ytd = 0.
   else if iv-name = 4 or iv-name = 3 then
     assign v-lytd = 0 
            v-ytd = 0. 
   j-x = j-x + 1.
   if j-x < 3 or v-region = "final" then
     next.    /* Get past the Excel Header protion of the file */


   if v-region = "" or
      substring(v-region,1,1) = "0" or
      substring(v-region,1,1) = "z" or 
      substring(v-region,1,1) = "x" or 
      v-district = "n500" then
     next.
     /*
     assign v-region = "z"
            v-district = " 888".
     */
 

   if v-ytd < 0  then
      v-ytd = v-ytd * -1.
   if v-lytd < 0 then
      v-lytd = v-lytd * -1.
   assign v-cust = 0 
          v-shipto = " ".
   
   find sppcd where
        sppcd.custno = v-cust and
        sppcd.shipto = v-shipto and
        sppcd.pcat = v-pcat and
        sppcd.region = v-region and
        sppcd.district = substring(v-district,2,3) no-lock no-error.
   if avail sppcd then
     do:
     assign sppcd.sales = sppcd.sales + 
                          (if (v-ytd + v-lytd) = 0 then
                            .0000001
                           else
                            (v-ytd + v-lytd)).
     end.
   else
     do:
     create sppcd.
     assign sppcd.custno = v-cust
            sppcd.shipto = v-shipto
            sppcd.region = v-region
            sppcd.district = substring(v-district,2,3)
            sppcd.pcat = v-pcat
            sppcd.sales = 
                          (if (v-ytd + v-lytd) = 0 then
                            .0000001
                           else
                            (v-ytd + v-lytd))
            sppcd.xpct = 0. 

     end.
   find t-sppcd where
        t-sppcd.pcat = v-pcat no-lock no-error.
   if avail t-sppcd then
     do:
     assign t-sppcd.sales = t-sppcd.sales +
                          (if (v-ytd + v-lytd) = 0 then
                            .0000001
                           else
                            (v-ytd + v-lytd)).
 
     end.
   else
     do:
     create t-sppcd.
     assign
            t-sppcd.pcat = v-pcat
            t-sppcd.sales = 
                          (if (v-ytd + v-lytd) = 0 then
                            .0000001
                           else
                            (v-ytd + v-lytd)).
     end.
   end.
input stream xpcd close.   
end. /* tableload1 */


Procedure tableload2:
define input parameter  iv-name as integer no-undo.

  input stream xprd from 
    value(v-printdir + "tbrdrdcu" + string(iv-name,"9") + ".sxk").
 

assign j-x = 0.
  
  repeat:

    assign 
      v-region     = ""
      v-district   = ""
      v-pcat       = ""
      v-cust       = 0
      v-prod       = ""
      v-ytd        = 0
      v-lytd       = 0
      v-skip       = ""
      v-cust       = 0
      v-shipto     = ""
      v-lsttrans   = ""
      v-lstsale    = 0.
    if j-x = 0 then 
      do:
      import stream xprd delimiter "~011"
        v-skip.
      import stream xprd delimiter "~011"
        v-skip.
      j-x = 2.
      end.
    
    import stream xprd delimiter "~011"
     v-skip
     v-region
     v-district
     v-cust
     v-skip
     v-shipto
     v-prod
     v-skip    /* Month 1 Sales             */
     v-skip    /* Month 1 Margin            */
     v-skip    /* Month 2 Sales             */
     v-skip    /* Month 2 Margin            */
     v-skip    /* Month 3 Sales             */
     v-skip    /* Month 3 Margin            */
     v-ytd
     v-skip    /* Current YTD margin        */
     v-skip    /* Previous YTD Sales        */
     v-skip    /* Previous YTD Margin       */
     v-skip    /* Variance Sales            */
     v-skip    /* Variance Difference %     */
     v-skip    /* Variance Margin           */
     v-lytd    
     v-skip    /* LYTD Margin               */
     v-skip    /* Backlog                   */
     v-skip    /* Backlog Margin            */
     v-lstsale
     v-lsttrans.
   
   if  /* v-name = 5 or */ v-name = 1 then
     assign v-ytd = 0.
   else if v-name = 4 or v-name = 3 then
     assign v-lytd = 0 
            v-ytd = 0. 
    
   j-x = j-x + 1.
   if j-x < 3 or v-region = "final" then
     next.    /* Get past the Excel Header protion of the file */

      
   if v-region = "" or
      substring(v-region,1,1) = "0" or 
      substring(v-region,1,1) = "z" or
      substring(v-region,1,1) = "x" or 
      v-district = "n500" then
     next.
     /*
     assign v-region = "z"
            v-district = " 888".
     */
 
   if v-ytd < 0  then
      v-ytd = v-ytd * -1.
   if v-lytd < 0 then
      v-lytd = v-lytd * -1.
   

   if length(v-prod) > 25 then
     next.
   
   find spprd where
        spprd.custno = v-cust and
        spprd.shipto = v-shipto and
        spprd.prod = v-prod and
        spprd.region = v-region and
        spprd.district = substring(v-district,2,3) no-lock no-error.
   if avail spprd then
     do:
     assign spprd.sales = spprd.sales + v-ytd + v-lytd.
     if (v-ytd + v-lytd) = 0 then
       assign spprd.sales =  spprd.sales + .0000001.
          /* force presents for percent */
     end.
   else
     do:
     create spprd.
     assign spprd.custno = v-cust
            spprd.shipto = v-shipto
            spprd.region = v-region
            spprd.district = substring(v-district,2,3)
            spprd.prod = v-prod
            spprd.sales = v-ytd + v-lytd
            spprd.lstsale  = v-lstsale
            spprd.lsttrans = v-lsttrans
            spprd.xpct = 0.
     if spprd.sales = 0 then
       assign spprd.sales = .0000001.
     end.
     
   find t-spprd where
        t-spprd.prod = v-prod no-lock no-error.
   if avail t-spprd then
     do:
     assign t-spprd.sales = t-spprd.sales + v-ytd + v-lytd.
     if (v-ytd + v-lytd) = 0 then
       assign t-spprd.sales =  t-spprd.sales + .0000001.
     end.
   else
     do:
     create t-spprd.
     assign
            t-spprd.prod  = v-prod
            t-spprd.sales = v-ytd + v-lytd.
     if t-spprd.sales = 0 then
       assign t-spprd.sales = .0000001.
     end.
   end.   
   
 input stream xprd close.   
 
 end. /* tableload2 */
 
 

