procedure zsdvaspmapin:
 input stream zd from "/rd/cust/local/tomh/vaexf/zsdivaspmap.txt".

 repeat:
   create zsdivaspmap.
   import stream zd zsdivaspmap.
 end. 

input stream zd close.
end.

procedure zsdvaspmapout:
 output stream zd to "/rd/cust/local/tomh/vaexf/zsdivaspmap.txt".
 for each zsdivaspmap:
  if zsdivaspmap.cono <> 0 then
    export stream zd zsdivaspmap.
 end.
 output stream zd close.
end.


