assign g-pono = dec(substring(o-frame-value,1,7))
       g-posuf = int(substring(o-frame-value,9,2))
       g-polineno = int(substring(o-frame-value,12,3))
       v-seqno  = int(substring(o-frame-value,16,3)).
        
find poelo use-index k-poelo where poelo.cono = g-cono and
                                   poelo.ordertype = "o" and
                                   poelo.pono = g-pono and
                                   poelo.posuf = g-posuf and
                                   poelo.lineno = g-polineno and
                                   poelo.seqno = v-seqno no-lock no-error.

if avail poelo then
  do:
  find poeh where poeh.cono = g-cono and
                  poeh.pono = g-pono and
                  poeh.posuf = g-posuf no-lock no-error.
  assign g-orderno = poelo.orderaltno
         g-ordersuf = poelo.orderaltsuf.
  
  
  find oeeh where oeeh.cono = g-cono and
                  oeeh.orderno = g-orderno and
                  oeeh.ordersuf = g-ordersuf no-lock no-error.

  end.
