/*  p-zsdiob.i   insert to build global from frame value  */
g-oelineno = integer(o-frame-value).

find oeelb where oeelb.cono = g-cono and
                 oeelb.batchnm = string(v-batchnm,">>>>>>>9") and
                 oeelb.seqno   = 1 and
                 oeelb.lineno = g-oelineno no-lock no-error.



