assign g-wtno = dec(substring(o-frame-value,1,7))
       g-wtsuf = int(substring(o-frame-value,9,2))
       g-wtlineno = int(substring(o-frame-value,12,3))
       v-seqno  = int(substring(o-frame-value,16,3)).
        
find wtelo use-index k-wtelo where wtelo.cono = g-cono and
                                   wtelo.ordertype = "o" and
                                   wtelo.wtno = g-wtno and
                                   wtelo.wtsuf = g-wtsuf and
                                   wtelo.lineno = g-wtlineno and
                                   wtelo.seqno = v-seqno no-lock no-error.

if avail wtelo then
  do:
  find wteh where wteh.cono = g-cono and
                  wteh.wtno = g-wtno and
                  wteh.wtsuf = g-wtsuf no-lock no-error.
  assign g-orderno = wtelo.orderaltno
         g-ordersuf = wtelo.orderaltsuf.
  
  
  find oeeh where oeeh.cono = g-cono and
                  oeeh.orderno = g-orderno and
                  oeeh.ordersuf = g-ordersuf no-lock no-error.

  end.
