/* pickTempTable.i */
define temp-table pick no-undo
field labelname    as char format "x(78)"           
field orderno     as char format "x(78)"           
field ordersuf    as char format "x(78)"           
field custno as char format "x(78)"           
field custpo as char format "x(78)"           
field custname as char format "x(78)"           
field shiptonm as char format "x(78)"           
field shipto1 as char format "x(78)"           
field shipto2 as char format "x(78)"           
field shiptocity as char format "x(78)"           
field shiptost as char format "x(78)"           
field shiptozip as char format "x(78)"           
field citystzip as char format "x(78)"           
field shipvia as char format "x(78)"           
field stagingloc as char format "x(78)"           
field user1 as char format "x(78)"           
field user2 as char format "x(78)"           
field binloc as char format "x(78)"           
field weight as char format "x(78)"           
field cubes as char format "x(78)"           
field shiptono as char format "x(78)"           
field lineno as char format "x(78)"           
field shipprod as char format "x(78)"           
field custprod as char format "x(78)"           
field descrip1 as char format "x(78)"           
field qtyord as char format "x(78)"           
field qtyship as char format "x(78)"           
field unitmeas as char format "x(78)"           
field oeeluser1 as char format "x(78)"           
field oeeluser2 as char format "x(78)"           
field oeeluser3 as char format "x(78)"           
field oeeluser6 as  dec  format "99999999.99999" 
field oeeluser8 as char format "x(78)"           
field noteln1 as char format "x(78)"           
field noteln2 as char format "x(78)"           
field noteln3 as char format "x(78)"           
field noteln4 as char format "x(78)"           
field noteln5 as char format "x(78)"           
field noteln6 as char format "x(78)"           
field placedby as char format "x(78)"           
field reference as char format "x(78)"           
field jobno as char format "x(78)"           
field custpoline as char format "x(78)"           
field shipdt as date           
field supplierid as char format "x(78)"           
field revision as char format "x(78)"           
field bin-loc1 as char format "x(78)"           
field bin-loc2 as char format "x(78)"           
/* field user1
   field user2  */
field user3 as char format "x(78)"           
field user4 as char format "x(78)"           
field user5 as char format "x(78)"           
field user6 as char format "x(78)"           
field user7 as char format "x(78)"           
field user8 as char format "x(78)"           
field user9 as char format "x(78)"           
field user10 as char format "x(78)"           
field user11 as char format "x(78)"           
field user12 as char format "x(78)"           
field user13 as char format "x(78)"           
field user14 as char format "x(78)"           
field user15 as char format "x(78)"           
field user16 as char format "x(78)"           
field user17 as char format "x(78)"           
field user18 as char format "x(78)".

