/* pickbcdtt.i 
   to put the record in the outstream
*/
put stream bcd unformatted
pick.labelname    v-tilda           
pick.orderno     v-tilda           
pick.ordersuf    v-tilda           
pick.custno v-tilda           
pick.custpo v-tilda           
pick.custname v-tilda           
pick.shiptonm v-tilda           
pick.shipto1 v-tilda           
pick.shipto2 v-tilda           
pick.shiptocity v-tilda           
pick.shiptost v-tilda           
pick.shiptozip v-tilda           
pick.citystzip v-tilda           
pick.shipvia v-tilda           
pick.stagingloc v-tilda           
pick.user1 v-tilda           
pick.user2 v-tilda           
pick.binloc v-tilda           
pick.weight v-tilda           
pick.cubes v-tilda           
pick.shiptono v-tilda           
pick.lineno v-tilda           
pick.shipprod v-tilda           
pick.custprod v-tilda           
pick.descrip1 v-tilda           
pick.qtyord v-tilda           
pick.qtyship v-tilda           
pick.unitmeas v-tilda           
pick.oeeluser1 v-tilda           
pick.oeeluser2 v-tilda           
pick.oeeluser3 v-tilda           
pick.oeeluser6 v-tilda 
pick.oeeluser8 v-tilda           
pick.noteln1 v-tilda           
pick.noteln2 v-tilda           
pick.noteln3 v-tilda           
pick.noteln4 v-tilda           
pick.noteln5 v-tilda           
pick.noteln6 v-tilda           
pick.placedby v-tilda           
pick.reference v-tilda           
pick.jobno v-tilda           
pick.custpoline v-tilda           
pick.shipdt v-tilda           
pick.supplierid v-tilda           
pick.revision v-tilda           
pick.bin-loc1 v-tilda           
pick.bin-loc2 v-tilda           
/* pick.user1 v-tilda calculated field */
pick.user2 v-tilda 
pick.user3 v-tilda           
pick.user4 v-tilda           
pick.user5 v-tilda           
pick.user6 v-tilda           
pick.user7 v-tilda           
pick.user8 v-tilda           
pick.user9 v-tilda           
pick.user10 v-tilda           
pick.user11 v-tilda           
pick.user12 v-tilda           
pick.user13 v-tilda           
pick.user14 v-tilda           
pick.user15 v-tilda           
pick.user16 v-tilda           
pick.user17 v-tilda           
pick.user18 v-tilda
   chr(13)
   chr(10).

