define temp-table temp-prod no-undo
/* these are control fields for the control lines */
field printcopies as char format "x(2)"
/* these match the ldd file in txdata order */
field lblname as char format "x(78)"
field descrip1 as char format "x(78)" 
field descrip2 as char format "x(78)" 
field shipprod as char format "x(78)" 
field binloc1 as char format "x(78)" 
field binloc2 as char format "x(78)" 
field vendprod as char format "x(78)" 
field section1 as char format "x(78)" 
field section2 as char format "x(78)" 
field section3 as char format "x(78)" 
field section4 as char format "x(78)" 
field section5 as char format "x(78)" 
field section6 as char format "x(78)" 
field pono as char format "x(78)" 
field posuf as char format "x(78)" 
field lineno as char format "x(78)" 
field weight as char format "x(78)" 
field cubes as char format "x(78)" 
field vendno as char format "x(78)" 
field vendnm as char format "x(78)" 
field serialno as char format "x(78)" 
field user1 as char format "x(78)" 
field user2 as char format "x(78)" 
field user3 as char format "x(78)" 
field user4 as char format "x(78)" 
field user5 as char format "x(78)" 
field user6 as char format "x(78)" 
field user7 as char format "x(78)" 
field user8 as char format "x(78)" 
field user9 as char format "x(78)" 
field user10 as char format "x(78)" 
field reprint as char format "x(78)" 
field prepo1 as char format "x(78)" 
field fullpono as char format "x(78)" 
field tagno as char format "x(78)"
field qtyrcv as char format "x(78)"
field seqno  like oeelk.seqno.
