/*  SX 55

u-arico.i 1.1 01/03/98 */
/* u-arico.i 1.1 2/16/92 */
/*********************** u-arico.i ****************************************/
   s-whse
   s-pricetype
   s-pricecd
   s-disccd
   s-wodisccd
   s-slsrep[1]
   s-slsrep[2]
   s-CSR
   s-shipinstr
   s-shipvia
   s-route
   s-pocontctnm
   s-pophoneno
   s-inbndfrtfl
   s-outbndfrtfl
   s-disptext
   s-taxablety
   s-msgtext[2]
