g-prod
s-source
s-kittype
/* Section 3 */
apsv.name           when avail apsv
s-statustype
/*icsw.statustype   */

s-PurchDlit
s-publt   
s-publtdt   
lt-manupddt
/*lt-manupdtag*/
lt-leadtmavg
lt-leadtm   
lt-frozendays
/*icsw.avgltdt      */
/*icsw.frozenltty   */
/*icsw.leadtmlast   */
/*icsw.lastltdt     */

/*icsw.leadtmprio   */ 
/*icsw.priorltdt    */

/*s-LastPoRcptdt    */
/*s-variance        */

s-orderdt-1
s-rcptdt-1   
s-expshpdt-1 
s-actLT-1    
s-rcptfl-1   
s-orderdt-2
s-rcptdt-2   
s-expshpdt-2 
s-actLT-2    
s-rcptfl-2   
s-orderdt-3
s-rcptdt-3   
s-expshpdt-3 
s-actLT-3    
s-rcptfl-3
s-orderdt-4
s-rcptdt-4   
s-expshpdt-4 
s-actLT-4    
s-rcptfl-4
s-orderdt-5
s-rcptdt-5   
s-expshpdt-5 
s-actLT-5 
s-rcptfl-5
     
s-nxtdisplay
s-nxtshipdt 
s-nxtentdt
s-nxtackndt
/*
s-nxtackncd
*/
s-estimateLT
s-transitLT

 /*  
s-LastExpShipdt  
s-LastAckndt  
s-OnTime   
 s-quotelt 
 */
