/* SX 55

   u-oeetar.i 1.1 01/03/98 */
/* u-oeetar.i 1.2 5/26/92 */
/* u-oeetar.i */
s-phoneno      
              
x-shipto              /* s-slsrep  */
s-name s-faxphoneno
s-addr  s-terms
s-city s-state s-zipcd
/* SX55 
arsc.ordbal     when v-secure[2] ge 2
arsc.credlim    when v-secure[2] ge 2
   SX55 */
s-ordbal        when v-secure[2] ge 2
s-credlim       when v-secure[2] ge 2
s-totalbal      when v-secure[2] ge 2
s-credrem       when arsc.credlim ne 0  and v-secure[2] ge 2
s-pastbal       when v-secure[2] ge 2
s-pastper       when v-secure[2] ge 2
s-credtext s-shipvia
s-shipinstr
s-inbndfrtfl
s-disp s-outbndfrtfl
s-botext s-subtext
s-pocontctnm s-pophoneno
x-ctype   
x-prctype 
x-slsoname 
x-slsiname 
x-CSRname
x-crmgr 
x-lstyrsls
/* x-line */
arsc.comment


