if {k-func6.i} then do:
/*   message "kit" var-kit x-front "lineno" var-lineno "var-prod" var-prod. pause.    */
   run scheduleb_comp.p(g-orderno, g-ordersuf, var-lineno, var-prod ).
end. 

    put screen row 5 col 2 color message 
"  Line Product                     AvgCost         Qty Ship     Qty Ord     ".
    put screen row 6 col 2 color message 
"  Description                      NetCost      Country    ExpDt    LstUptDt".
    put screen row 7 col 2 color message
"       US Tariff/CN Tariff                                                  ". 
    put screen row 8 col 2 color message 
"       ScheduleB Info           LstChgDt                                    ".
    
    put screen row 18 col 2 color message 
"                     F6 - Components                                         ".
 


