/* u-smszg.i */

zsastz.codeval [1] 
zsastz.codeval [2] 
zsastz.codeval [3] 
zsastz.codeval [4] 
zsastz.codeval [5] 
zsastz.codeval [6] 
zsastz.codeval [7] 
zsastz.codeval [8]
zsastz.codeval [9] 
zsastz.codeval [10] 
zsastz.codeval [11]
zsastz.codeval [12]
zsastz.codeval [13] 
zsastz.codeval [14] 
zsastz.codeval [15] 
zsastz.codeval [16] 
   
