/* u-smazf.i */

zsmsq.quotaamt[1]  
zsmsq.quotaGP[1]   
zsmsq.quotaamt[2]  
zsmsq.quotaGP[2]  
zsmsq.quotaamt[3] 
zsmsq.quotaGP[3]  
zsmsq.quotaamt[4] 
zsmsq.quotaGP[4]  
zsmsq.quotaamt[5] 
zsmsq.quotaGP[5] 
zsmsq.quotaamt[6]
zsmsq.quotaGP[6] 
zsmsq.quotaamt[7]
zsmsq.quotaGP[7] 
zsmsq.quotaamt[8]
zsmsq.quotaGP[8] 
zsmsq.quotaamt[9]
zsmsq.quotaGP[9]  
zsmsq.quotaamt[10]
zsmsq.quotaGP[10]   
zsmsq.quotaamt[11]
zsmsq.quotaGP[11] 
zsmsq.quotaamt[12]
zsmsq.quotaGP[12] 

