find zsastz where
     zsastz.cono = g-cono and
     zsastz.labelfl = false and
     zsastz.codeiden = "MOBILE-FREIGHT-EXCPTIONS" and
     zsastz.primarykey  = string({1},"999999999999") and
     zsastz.secondarykey  = {2}
     {3} no-error.