find zsastz where
     zsastz.cono = g-cono and
     zsastz.labelfl = false and
     zsastz.codeiden = "XX-SMSZG" + {1} and
     zsastz.primarykey  = {2} and
     zsastz.secondarykey  = string({3},"999")
     {4} no-error.