can-find(first icsp where icsp.cono = g-cono and 
                    icsp.descrip[1] MATCHES {1}) and
                    {1} <> ""
                    
                                                                   
                                                                   
                                                                            
