/* TBXR F6 CodeGen End of Includes that are CodeGen Generated  */ 
&if defined(user_optiontype) = 2 &then
if not
can-do("C,S,T",substring(p-optiontype,v-inx,1))
 then 
   if not x-stream then
    display 
   "Invalid option selection valid entries C,S,T "
     substring(p-optiontype,v-inx,1).
   else 
     display stream xpcd 
    "Invalid option selection valid entries C,S,T "
     substring(p-optiontype,v-inx,1).
&endif
 
&if defined(user_registertype) = 2 &then
if not
can-do("C,S,T",substring(p-register,v-inx,1))
 then 
   if not x-stream then
    display 
   "Invalid option selection valid entries C,S,T "
     substring(p-register,v-inx,1).
   else 
     display stream xpcd 
    "Invalid option selection valid entries C,S,T "
     substring(p-register,v-inx,1).
&endif
 
&if defined(user_DWvarheaders1) = 2 &then
if v-lookup[v-inx4] = "C" then
  do:
  if v-inx4 > 0 then 
    export_rec = export_rec + v-del.  
  assign export_rec = export_rec + "CustNo".
  end. 
else  
if v-lookup[v-inx4] = "S" then
  do:
  if v-inx4 > 0 then 
    export_rec = export_rec + v-del.  
  assign export_rec = export_rec + "SlsRepOut".
  end. 
else  
if v-lookup[v-inx4] = "T" then
  do:
  if v-inx4 > 0 then 
    export_rec = export_rec + v-del.  
  assign export_rec = export_rec + "TakenBy".
  end. 
else  
  do: 
  if v-inx4 > 0 then 
    export_rec = export_rec + v-del.  
  assign export_rec = export_rec + " ".
  end. 
&endif
 
&if defined(user_exportvarheaders1) = 2 &then
if v-lookup[v-inx4] = "C" then
  do:
  if v-inx4 > 0 then 
    export_rec = export_rec + v-del.  
  assign export_rec = export_rec + "CustNo".
  end. 
else  
if v-lookup[v-inx4] = "S" then
  do:
  if v-inx4 > 0 then 
    export_rec = export_rec + v-del.  
  assign export_rec = export_rec + "SlsRepOut".
  end. 
else  
if v-lookup[v-inx4] = "T" then
  do:
  if v-inx4 > 0 then 
    export_rec = export_rec + v-del.  
  assign export_rec = export_rec + "TakenBy".
  end. 
else  
  do: 
  if v-inx4 > 0 then 
    export_rec = export_rec + v-del.  
  assign export_rec = export_rec + " ".
  end. 
&endif
 
&if defined(user_exportvarheaders2) = 2 &then
if v-lookup[v-inx4] = "C" then
  do:
  if v-inx4 > 0 then 
    export_rec = export_rec + v-del.  
  assign export_rec = export_rec + "".
  end. 
else  
if v-lookup[v-inx4] = "S" then
  do:
  if v-inx4 > 0 then 
    export_rec = export_rec + v-del.  
  assign export_rec = export_rec + "".
  end. 
else  
if v-lookup[v-inx4] = "T" then
  do:
  if v-inx4 > 0 then 
    export_rec = export_rec + v-del.  
  assign export_rec = export_rec + "".
  end. 
else  
  do: 
  if v-inx4 > 0 then 
    export_rec = export_rec + v-del.  
  assign export_rec = export_rec + " ".
  end. 
&endif
 
&if defined(user_loadtokens) = 2 &then
if v-lookup[v-inx] = "C" then
  do: 
  if v-inx > 1 then 
    assign v-mystery = v-mystery + v-delim  
           v-sortmystery = v-sortmystery + v-delim. 
                                                    
  assign v-token =                                  
    caps(string(expdt.custno,"999999999999")). 
  assign v-mystery = v-mystery + v-token.
  if v-sortup[v-inx] = "<" then   
    run ascii_make_it_not (input-output v-token).   
  assign  v-sortmystery = v-sortmystery +           
                          string(v-token,"999999999999").   
  end.                                              
else                                              
if v-lookup[v-inx] = "S" then
  do: 
  if v-inx > 1 then 
    assign v-mystery = v-mystery + v-delim  
           v-sortmystery = v-sortmystery + v-delim. 
                                                    
  assign v-token =                                  
    caps(string(expdt.slsrep,"x(4)")). 
  assign v-mystery = v-mystery + v-token.
  if v-sortup[v-inx] = "<" then   
    run ascii_make_it_not (input-output v-token).   
  assign  v-sortmystery = v-sortmystery +           
                          string(v-token,"x(4)").   
  end.                                              
else                                              
if v-lookup[v-inx] = "T" then
  do: 
  if v-inx > 1 then 
    assign v-mystery = v-mystery + v-delim  
           v-sortmystery = v-sortmystery + v-delim. 
                                                    
  assign v-token =                                  
    caps(string(expdt.takenby,"x(4)")). 
  assign v-mystery = v-mystery + v-token.
  if v-sortup[v-inx] = "<" then   
    run ascii_make_it_not (input-output v-token).   
  assign  v-sortmystery = v-sortmystery +           
                          string(v-token,"x(4)").   
  end.                                              
else                                              
if v-lookup[v-inx] = "X" then
  do: 
  if v-inx > 1 then 
    assign v-mystery = v-mystery + v-delim  
           v-sortmystery = v-sortmystery + v-delim. 
                                                    
  assign v-token =                                  
    caps(string(recid(expdt),"999999999999")). 
  assign v-mystery = v-mystery + v-token.
  if v-sortup[v-inx] = "<" then   
    run ascii_make_it_not (input-output v-token).   
  assign  v-sortmystery = v-sortmystery +           
                          string(v-token,"999999999999").   
  end.                                              
else                                              
  assign v-token = " ".
&endif
 
&if defined(user_totaladd) = 2 &then
  assign t-amounts[1] = expdt.cnt.
&endif
 
&if defined(user_numbertotals) = 2 &then
  if v-subtotalup[v-inx4] = 1 then
    v-val = t-amounts1[v-inx4].
  else 
    v-val = t-amounts1[v-inx4].
  do inz = 1 to 1:
  if inz = 1 then
    v-regval[inz] = t-amounts1[v-inx4].
  else 
    assign inz = inz.
  end.
&endif
 
&if defined(user_summaryloadprint) = 2 &then
  if v-lookup[v-inx2] = "C" then
    do:
    if entry(v-inx2,v-holdsortmystery,v-delim) begins  v-6tildas then
      assign h-lookup = "All Others".
    if v-inx2 = u-entitys then 
      assign v-summary-lit2 = h-lookup + " " + h-genlit.
    else
      assign v-summary-lit2 = "Customer Number - " + h-lookup + " " + h-genlit.
    end.
  else
  if v-lookup[v-inx2] = "S" then
    do:
    if entry(v-inx2,v-holdsortmystery,v-delim) begins  v-6tildas then
      assign h-lookup = "All Others".
    if v-inx2 = u-entitys then 
      assign v-summary-lit2 = h-lookup + " " + h-genlit.
    else
      assign v-summary-lit2 = "Sales Rep Out - " + h-lookup + " " + h-genlit.
    end.
  else
  if v-lookup[v-inx2] = "T" then
    do:
    if entry(v-inx2,v-holdsortmystery,v-delim) begins  v-6tildas then
      assign h-lookup = "All Others".
    if v-inx2 = u-entitys then 
      assign v-summary-lit2 = h-lookup + " " + h-genlit.
    else
      assign v-summary-lit2 = "Taken By - " + h-lookup + " " + h-genlit.
    end.
  else
      v-summary-lit = v-lookup[v-inx2].
&endif
 
&if defined(user_summaryloadexport) = 2 &then
  if v-inx4 > v-inx2  then 
    do:
    if v-inx4 > 1 then          
      export_rec = export_rec + v-del. 
    assign export_rec = export_rec +  " ".
    if v-cells[v-inx4] = "2" then
      assign export_rec = export_rec +  v-del + " ".
    end. 
  else 
  if v-lookup[v-inx4] = "C" then
    do:
    assign h-genlit = " ".
    if entry(v-inx4,v-holdsortmystery,v-delim) begins  v-6tildas then
      assign h-lookup = "All Others".
    if v-inx4 > 1 then 
      export_rec = export_rec + v-del.
    
    if v-cells[v-inx4] = "2" then
      do:
      if "999999999999" begins "X" Then 
        do:
        assign x-str1 = h-lookup.
        run String_Ready (input x-str1,
                           input-output h-lookup).
        end.
      assign x-str1 = h-genlit.
      run String_Ready (input x-str1,
                         input-output h-genlit).
      assign export_rec = export_rec  
         + h-lookup + v-del + h-genlit.
      end.
    else
      do:
      if "999999999999" begins "X" Then 
        do:
        assign x-str1 = h-lookup.
        run String_Ready (input x-str1,
                           input-output h-lookup).
        end.
      assign export_rec = export_rec + h-lookup.
      end.
    end.
  else
  if v-lookup[v-inx4] = "S" then
    do:
    assign h-genlit = " ".
    if entry(v-inx4,v-holdsortmystery,v-delim) begins  v-6tildas then
      assign h-lookup = "All Others".
    if v-inx4 > 1 then 
      export_rec = export_rec + v-del.
    
    if v-cells[v-inx4] = "2" then
      do:
      if "x(4)" begins "X" Then 
        do:
        assign x-str1 = h-lookup.
        run String_Ready (input x-str1,
                           input-output h-lookup).
        end.
      assign x-str1 = h-genlit.
      run String_Ready (input x-str1,
                         input-output h-genlit).
      assign export_rec = export_rec  
         + h-lookup + v-del + h-genlit.
      end.
    else
      do:
      if "x(4)" begins "X" Then 
        do:
        assign x-str1 = h-lookup.
        run String_Ready (input x-str1,
                           input-output h-lookup).
        end.
      assign export_rec = export_rec + h-lookup.
      end.
    end.
  else
  if v-lookup[v-inx4] = "T" then
    do:
    assign h-genlit = " ".
    if entry(v-inx4,v-holdsortmystery,v-delim) begins  v-6tildas then
      assign h-lookup = "All Others".
    if v-inx4 > 1 then 
      export_rec = export_rec + v-del.
    
    if v-cells[v-inx4] = "2" then
      do:
      if "x(4)" begins "X" Then 
        do:
        assign x-str1 = h-lookup.
        run String_Ready (input x-str1,
                           input-output h-lookup).
        end.
      assign x-str1 = h-genlit.
      run String_Ready (input x-str1,
                         input-output h-genlit).
      assign export_rec = export_rec  
         + h-lookup + v-del + h-genlit.
      end.
    else
      do:
      if "x(4)" begins "X" Then 
        do:
        assign x-str1 = h-lookup.
        run String_Ready (input x-str1,
                           input-output h-lookup).
        end.
      assign export_rec = export_rec + h-lookup.
      end.
    end.
  else
    do:
    if v-inx4 > 1 then 
      export_rec = export_rec + v-del.
    assign export_rec = export_rec + v-lookup[v-inx4].
    end.
&endif
 
/* TBXR F6 CodeGen End of Includes that are CodeGen Generated  */ 
