 not can-find (first notes where
                     notes.cono = g-cono       and
                     notes.notestype  = "zz"   and 
                     notes.primarykey = "pdsc" +
                          string(dec(g-vendno),"999999999999") + 
                          string(dec(g-custno),"999999999999") +
                          string(g-shipto,"x(8)") and 
                     notes.secondarykey = {1})      
        
   or {1} = ""                                            