 validate ((can-find(first b-zsastz where b-zsastz.cono = g-cono and
   b-zsastz.labelfl = false and b-zsastz.codeiden = "Geographic-Defines" and
   b-zsastz.primarykey = input zsastz.codeval[{1}] and b-zsastz.secondarykey ge "")) or substring(input zsastz.codeval[{1}],3,1) = "*",x-lit)  

