(if t-amounts9[v-inx4] = 0 then 0                       
 else if t-amounts2[v-inx4] = 0 then 0                       
 else if t-amounts9[v-inx4] / t-amounts2[v-inx4] < -999 then -999 
 else if t-amounts9[v-inx4] / t-amounts2[v-inx4] > 999 then 999   
 else t-amounts9[v-inx4] / t-amounts2[v-inx4]).                    
                                                           
