((if t-amounts1[v-inx4] = 0 then 0                       
  else if t-amounts1[v-inx4] = 0 then 0                   
  else if t-amounts4[v-inx4] / t-amounts1[v-inx4] < -999 then -999 
  else if t-amounts4[v-inx4] / t-amounts1[v-inx4] > 999 then 999   
  else t-amounts4[v-inx4] / t-amounts1[v-inx4]) * 100).                    
                                                           
