    find smsn where smsn.cono = 1 and
                    smsn.slsrep = h-lookup no-lock no-error.
     
    if avail smsn then
      h-genlit = smsn.name.
    else
      h-genlit = "No Name Available".
 