     find arsc where arsc.cono = g-cono and 
                     arsc.custno = dec(h-lookup) no-lock no-error.
     if entry(v-inx2,v-holdsortmystery,v-delim) begins "~~~~~~~~~~~~~~" then
       assign h-lookup = "All Others"
              h-genlit = "".
     else
     if avail arsc then
       do:
       assign h-lookup =  substring(arsc.lookupnm,1,9) + " " +         
                          string(dec(h-lookup),">>>>>>>>>>>9")   
              h-genlit = "".
       end. 
       
       
 