       find sasta use-index k-sasta where sasta.cono = g-cono
         and sasta.codeiden = "B"
         and sasta.codeval = h-lookup no-lock no-error.
     assign h-genlit = caps(if avail sasta then sasta.descrip
                             else "No BUYER Descrip").
    
