find oimsp where                                         
     oimsp.person = h-lookup no-lock no-error.           
     assign h-genlit = h-genlit + " " +                       
                                                                                  (if avail oimsp then oimsp.name      
                        else "No OIMSP Found").             
                                                                                       
