
    find apsv where apsv.cono = g-cono
         and apsv.vendno = dec(h-lookup) no-lock no-error.
     assign h-genlit = (if avail apsv then apsv.lookupnm
                        else "No APSV Found").
    
