     find arsc where arsc.cono = g-cono and 
                     arsc.custno = dec(h-lookup) no-lock no-error.
     if entry(v-inx2,v-holdsortmystery,v-delim) begins "~~~~~~~~~~~~~~" then
       assign h-lookup = "All Others"
              h-genlit = "".
     else
     if avail arsc then
       h-genlit = arsc.lookupnm.                      
 