     find icsp where icsp.cono = g-cono and 
                     icsp.prod = h-lookup no-lock no-error.
     if entry(v-inx2,v-holdsortmystery,v-delim) begins "~~~~~~~~~~~~~~" then
       assign h-lookup = caps("All Others")
              h-genlit = "".
     else
     if avail icsp then
       h-genlit = caps(icsp.descrip[1]).                      
 