/* >>>>>>>>>>>>>>>>>> Do not change this file   >>>>>>>>>>>>>>>>>>>>>>>>>>>>>
                      this is a template for 
                      zsdixrptx.p 
  >>>>>>>>>>>>>>>>>>                            >>>>>>>>>>>>>>>>>>>>>>>>> */
                      
/* TBXR F6 CodeGen End of Includes that are CodeGen Generated  */ 
&if defined(user_optiontype) = 2 &then

&endif
               
&if defined(user_registertype) = 2 &then
&endif
               
&if defined(user_DWvarheaders1) = 2 &then
&endif
               
&if defined(user_exportvarheaders1) = 2 &then
&endif
               
&if defined(user_exportvarheaders2) = 2 &then
&endif
               
&if defined(user_loadtokens) = 2 &then
&endif
               
&if defined(user_totaladd) = 2 &then
&endif
               
&if defined(user_numbertotals) = 2 &then
&endif
               
&if defined(user_summaryloadprint) = 2 &then
&endif
               
&if defined(user_summaryloadexport) = 2 &then
&endif
               
/* TBXR F6 CodeGen End of Includes that are CodeGen Generated  */ 
