if {k-func19.i} then
  do:
  s-position = frame-line(f-poquel).
  assign x-ponoline = frame-value.
  assign frame-value = string(g-polineno).
  run comd.p.
  put screen row 21 col 3   
    color message
"F6-Prt Tog, F7-Extend, F8-OEIO, F9-ICIAW, F10-POIO, Ctl-A Tog All,Ctl-P Print".   
/*
" F6-Prt Toggle  F7-Extend  F8-OEIO  F9-ICIAW  F10-POIO  Ctl-A - Toggle All ". */
   put screen row 5 col 1 color message
"   P.O.     Lne   Product                      Vendor Qord  CAvl" +
"       Cost Rush".
  
  assign frame-value = x-ponoline.
  input clear.
  assign o-frame-value = "".
 end.
else
if lastkey = 1 then
  do:
  s-position = frame-line(f-poquel).
  for each zidc where zidc.cono = g-cono and
                      zidc.docttype = "pq" and
                      zidc.docpartner = s-buyer and
                      zidc.docuser1 = "Inbatch":                  
           
     find poeh where poeh.cono = g-cono and
                     poeh.pono = zidc.docnumber and
                     poeh.posuf = 00 
                     no-error.


  
     if avail poeh then
       do:
       z-refresh = true.
       assign poeh.xxc1 = if poeh.xxc1 =  "xeet" then "oeet" else "xeet".
       assign zidc.docdisp = if zidc.docdisp = "=" then " " else "=".
       end.
   end.
   put screen row 21 col 3   
    color message
"F6-Prt Tog, F7-Extend, F8-OEIO, F9-ICIAW, F10-POIO, Ctl-A Tog All,Ctl-P Print".   
/*
" F6-Prt Toggle  F7-Extend  F8-OEIO  F9-ICIAW  F10-POIO  Ctl-A - Toggle All ". */
  put screen row 5 col 1 color message
"   P.O.     Lne   Product                      Vendor Aord  CAvl" +
"       Cost Rush".
   
  assign o-frame-value = "".
  leave.  
end.
else
if lastkey = 16 then
  do:
  
  assign g-pono = dec(substring(frame-value,2,7))
         g-posuf = int(substring(frame-value,10,2))
         g-polineno = int(substring(frame-value,13,3)).

  run zsdipoetg.p (input "d",
                   input s-buyer).
  s-position = frame-line(f-poquel).
/*
  for each zidc where zidc.cono = g-cono and
                      zidc.docttype = "pq" and
                      zidc.docpartner = s-buyer and
                      zidc.docuser1 = "Inbatch":                  
           
     find poeh where poeh.cono = g-cono and
                     poeh.pono = zidc.docnumber and
                     poeh.posuf = 00 
                     no-lock no-error.

   end.
*/   
   

   put screen row 21 col 3   
    color message
"F6-Prt Tog, F7-Extend, F8-OEIO, F9-ICIAW, F10-POIO, Ctl-A Tog All,Ctl-P Print".   
/*
" F6-Prt Toggle  F7-Extend  F8-OEIO  F9-ICIAW  F10-POIO  Ctl-A - Toggle All ". */
  put screen row 5 col 1 color message
"   P.O.     Lne   Product                      Vendor Aord  CAvl" +
"       Cost Rush".
   
  assign o-frame-value = "".
  leave.  
end.    


