/* Product on the Fly */

  if g-callproc = "oeet" or g-callproc = "icizs" or g-callproc = "oeebt" or
     g-callproc = "vaet" or g-callproc = "oeexq" or g-callproc = "oeexc"
  then do:
  
     /*
     assign f-currproc[1] = substring(g-currproc,1,4) + "z"
            f-currproc[2] = ""
            f-currproc[3] = ""
            f-currproc[4] = ""
            f-currproc[5] = ""
            f-putscrn[1]  = "F6-Partial Add"
            f-putscrn[2]  = ""
            f-putscrn[3]  = ""
            f-putscrn[4]  = ""
            f-putscrn[5]  = "".
     */       
     
     run icswotf.p.
     
     return.
     
  end.

/* Product on the Fly */
