
if {1} = "vaeh" then
  do:
  find last xvaeh where xvaeh.cono = g-cono and
                        xvaeh.vano = dmddetail.tieord no-lock no-error.
  if avail xvaeh then 
    dmddetail.tiesuf = xvaeh.vasuf.
  else
    dmddetail.tiesuf = 00.
  end.
else
if {1} = "poel" then
  do:
  find last xpoel use-index k-poel
                  where xpoel.cono = g-cono and
                        xpoel.pono = dmddetail.tieord and
                        xpoel.lineno = dmddetail.tielineno and
                        xpoel.shipprod = dmddetail.prod no-lock no-error.
  if avail xpoel then 
    dmddetail.tiesuf = xpoel.posuf.
  else
    dmddetail.tiesuf = 00.
  end.  
else
if {1} = "wtel" then
  do:
  find last xwtel use-index k-wtel
                  where xwtel.cono = g-cono and
                        xwtel.wtno = dmddetail.tieord and
                        xwtel.lineno = dmddetail.tielineno and
                        xwtel.shipprod = dmddetail.prod no-lock no-error.
  if avail xwtel then 
    dmddetail.tiesuf = xwtel.wtsuf.
  else
    dmddetail.tiesuf = 00.
  end.  
else
if {1} = "oeelkw" then
  do:
  find last xoeelk use-index k-oeelk
                   where xoeelk.cono = g-cono and
                         xoeelk.ordertype = "w" and
                         xoeelk.orderno = dmddetail.tieord and
                         xoeelk.lineno  = 0 and
                         xoeelk.seqno = dmddetail.tielineno and
                         xoeelk.shipprod = dmddetail.prod no-lock no-error.
  if avail xoeelk then 
    dmddetail.tiesuf = xoeelk.ordersuf.
  else
    dmddetail.tiesuf = 00.
  end.  
else
if {1} = "oeelk" then
  do:
  find last xoeelk use-index k-oeelk
                   where xoeelk.cono = g-cono and
                         xoeelk.ordertype = "o" and
                         xoeelk.orderno = dmddetail.tieord and
                         xoeelk.lineno  = dmddetail.tielineno and
                         xoeelk.seqno = dmddetail.tieseq and
                         xoeelk.shipprod = dmddetail.prod no-lock no-error.
  if avail xoeelk then 
    dmddetail.tiesuf = xoeelk.ordersuf.
  else
    dmddetail.tiesuf = 00.
  end.  
else
if {1} = "oeel" then
  do:
  find last xoeel use-index k-oeel
                  where xoeel.cono = g-cono and
                        xoeel.orderno = dmddetail.tieord and
                        xoeel.lineno = dmddetail.tielineno and
                        xoeel.shipprod = dmddetail.prod no-lock no-error.
  if avail xoeel then 
    dmddetail.tiesuf = xoeel.ordersuf.
  else
    dmddetail.tiesuf = 00.
  end.     
else
if {1} = "oeelwbl" then
  do:
  
    
  find first xoeel use-index k-oeel
            where   xoeel.cono    = g-cono and
                    xoeel.orderno  = dmddetail.tieord and
                    xoeel.ordersuf = dmddetail.tiesuf and
                    xoeel.lineno   = dmddetail.tielineno and
                    xoeel.shipprod = dmddetail.prod no-lock no-error.
  if avail xoeel then 
    dmddetail.tiesuf = xoeel.ordersuf.
  else
    dmddetail.tiesuf = 00.
  end.     


