/* das - New Customer Mod */
find zsdiarsc where zsdiarsc.cono = g-cono and
                    zsdiarsc.custno = {&custno} and
                    zsdiarsc.statustype = yes
                    no-lock no-error.
if avail zsdiarsc then
  do:
  {&custno}:pfcolor in frame {&frame} = 2.
end.
else
  do:
  {&custno}:pfcolor in frame {&frame} = 1.
end.
